\relax 
\citation{Thorpe97}
\citation{Sutton96}
\FN@pp@footnotehinttrue 
\@writefile{toc}{\contentsline {chapter}{\numberline {4}Applying ADP into Traffic-light Scheduling Problem}{55}{chapter.4}}
\@writefile{lof}{\addvspace {10\p@ }}
\@writefile{lot}{\addvspace {10\p@ }}
\newlabel{chap2}{{4}{55}{Applying ADP into Traffic-light Scheduling Problem\relax }{chapter.4}{}}
\@writefile{toc}{\contentsline {section}{\numberline {4.1}Related ADP-based methods}{55}{section.4.1}}
\@writefile{brf}{\backcite{Thorpe97}{{55}{4.1}{section.4.1}}}
\citation{Wiering04}
\citation{Medina11}
\@writefile{brf}{\backcite{Sutton96}{{56}{4.1}{section.4.1}}}
\@writefile{brf}{\backcite{Wiering04}{{56}{4.1}{section.4.1}}}
\@writefile{brf}{\backcite{Medina11}{{56}{4.1}{section.4.1}}}
\citation{Cai07,Cai09}
\citation{Cai09}
\citation{Cai09}
\@writefile{brf}{\backcite{Cai07}{{57}{4.1}{section.4.1}}}
\@writefile{brf}{\backcite{Cai09}{{57}{4.1}{section.4.1}}}
\@writefile{brf}{\backcite{Cai09}{{57}{4.1}{section.4.1}}}
\@writefile{brf}{\backcite{Cai09}{{57}{4.1}{section.4.1}}}
\citation{Lowrie82}
\citation{Lowrie82}
\@writefile{toc}{\contentsline {section}{\numberline {4.2}Problem formulation}{58}{section.4.2}}
\@writefile{toc}{\contentsline {subsection}{\numberline {4.2.1}Assumptions}{58}{subsection.4.2.1}}
\@writefile{brf}{\backcite{Lowrie82}{{58}{4.2.1}{subsection.4.2.1}}}
\@writefile{brf}{\backcite{Lowrie82}{{58}{4.2.1}{subsection.4.2.1}}}
\@writefile{lof}{\contentsline {figure}{\numberline {4.1}{\ignorespaces  An example of making a stop. Only vehicle 1 is considered to be making a stop since its speed is changing from above the upper threshold to below the lower threshold\relax }}{59}{figure.caption.18}}
\newlabel{figStop}{{4.1}{59}{An example of making a stop. Only vehicle 1 is considered to be making a stop since its speed is changing from above the upper threshold to below the lower threshold\relax \relax }{figure.caption.18}{}}
\@writefile{toc}{\contentsline {subsection}{\numberline {4.2.2}The state space}{60}{subsection.4.2.2}}
\newlabel{eqC2trafficState}{{4.1}{60}{The state space\relax }{equation.4.2.1}{}}
\newlabel{eqC2signalState}{{4.2}{60}{The state space\relax }{equation.4.2.2}{}}
\newlabel{simInter}{{4.2a}{61}{Subfigure 4 4.2a\relax }{subfigure.4.2.1}{}}
\newlabel{sub@simInter}{{(a)}{a}{Subfigure 4 4.2a\relax }{subfigure.4.2.1}{}}
\newlabel{NS}{{4.2b}{61}{Subfigure 4 4.2b\relax }{subfigure.4.2.2}{}}
\newlabel{sub@NS}{{(b)}{b}{Subfigure 4 4.2b\relax }{subfigure.4.2.2}{}}
\newlabel{Turn}{{4.2c}{61}{Subfigure 4 4.2c\relax }{subfigure.4.2.3}{}}
\newlabel{sub@Turn}{{(c)}{c}{Subfigure 4 4.2c\relax }{subfigure.4.2.3}{}}
\newlabel{EW}{{4.2d}{61}{Subfigure 4 4.2d\relax }{subfigure.4.2.4}{}}
\newlabel{sub@EW}{{(d)}{d}{Subfigure 4 4.2d\relax }{subfigure.4.2.4}{}}
\@writefile{lof}{\contentsline {figure}{\numberline {4.2}{\ignorespaces A simple hypothetical intersection and its signal phases. \relax }}{61}{figure.caption.19}}
\@writefile{lof}{\contentsline {subfigure}{\numberline{(a)}{\ignorespaces {Layout of the intersection}}}{61}{subfigure.2.1}}
\@writefile{lof}{\contentsline {subfigure}{\numberline{(b)}{\ignorespaces {First phase, north-south}}}{61}{subfigure.2.2}}
\@writefile{lof}{\contentsline {subfigure}{\numberline{(c)}{\ignorespaces {Second phase, left turn from lane 2 onto lane 4}}}{61}{subfigure.2.3}}
\@writefile{lof}{\contentsline {subfigure}{\numberline{(d)}{\ignorespaces {Third phase, east-west}}}{61}{subfigure.2.4}}
\newlabel{figSimInterAndPhase}{{4.2}{61}{A simple hypothetical intersection and its signal phases. \relax \relax }{figure.caption.19}{}}
\FN@pp@footnotehinttrue 
\@writefile{lot}{\contentsline {table}{\numberline {4.1}{\ignorespaces Example of signal states for a hypothetical simple intersection.\relax }}{62}{table.caption.20}}
\newlabel{tabExampleSig}{{4.1}{62}{Example of signal states for a hypothetical simple intersection.\relax \relax }{table.caption.20}{}}
\newlabel{eqC2SystemState}{{4.3}{62}{The state space\relax }{equation.4.2.3}{}}
\newlabel{eqC2SystemStateTime}{{4.4}{62}{The state space\relax }{equation.4.2.4}{}}
\@writefile{toc}{\contentsline {subsection}{\numberline {4.2.3}Control and Dynamics}{62}{subsection.4.2.3}}
\newlabel{secControlAndDynamic}{{4.2.3}{62}{Control and Dynamics\relax }{subsection.4.2.3}{}}
\newlabel{eqC2Switch}{{4.5}{63}{Control and Dynamics\relax }{equation.4.2.5}{}}
\newlabel{eqC2trafficUpdate}{{4.6}{63}{Control and Dynamics\relax }{equation.4.2.6}{}}
\@writefile{toc}{\contentsline {subsection}{\numberline {4.2.4}Step cost and optimisation objective}{63}{subsection.4.2.4}}
\newlabel{eqC2StepCost}{{4.7}{63}{Step cost and optimisation objective\relax }{equation.4.2.7}{}}
\newlabel{eqC2Obj}{{4.8}{64}{Step cost and optimisation objective\relax }{equation.4.2.8}{}}
\@writefile{toc}{\contentsline {subsection}{\numberline {4.2.5}Linear features}{64}{subsection.4.2.5}}
\newlabel{eqC2ApproxStateVal}{{4.9}{64}{Linear features\relax }{equation.4.2.9}{}}
\newlabel{eqC2phi}{{4.10}{64}{Linear features\relax }{equation.4.2.10}{}}
\newlabel{eqC2phiN}{{4.11}{64}{Linear features\relax }{equation.4.2.11}{}}
\newlabel{eqC2JtildeSystem}{{4.12}{64}{Linear features\relax }{equation.4.2.12}{}}
\@writefile{toc}{\contentsline {section}{\numberline {4.3}Control policy}{65}{section.4.3}}
\@writefile{toc}{\contentsline {subsection}{\numberline {4.3.1}Control Algorithm}{65}{subsection.4.3.1}}
\@writefile{lof}{\contentsline {figure}{\numberline {4.3}{\ignorespaces  Flow chart for selecting the set of simulated phases.\relax }}{66}{figure.caption.21}}
\newlabel{figSimulationFlow}{{4.3}{66}{Flow chart for selecting the set of simulated phases.\relax \relax }{figure.caption.21}{}}
\citation{Nagel92}
\citation{Hartman2004,Esser1997}
\@writefile{toc}{\contentsline {subsection}{\numberline {4.3.2}Importance of turn-flow information}{67}{subsection.4.3.2}}
\newlabel{secTurnFlow}{{4.3.2}{67}{Importance of turn-flow information\relax }{subsection.4.3.2}{}}
\@writefile{toc}{\contentsline {section}{\numberline {4.4}Evaluation of the approach}{68}{section.4.4}}
\@writefile{toc}{\contentsline {subsection}{\numberline {4.4.1}Nagel-Schreckenberg traffic model}{68}{subsection.4.4.1}}
\@writefile{brf}{\backcite{Nagel92}{{68}{4.4.1}{subsection.4.4.1}}}
\@writefile{brf}{\backcite{Esser1997}{{68}{4.4.1}{subsection.4.4.1}}}
\@writefile{brf}{\backcite{Hartman2004}{{68}{4.4.1}{subsection.4.4.1}}}
\citation{Knospe2000}
\@writefile{lof}{\contentsline {figure}{\numberline {4.4}{\ignorespaces Illustration of NaSch model.\relax }}{69}{figure.caption.22}}
\@writefile{lof}{\contentsline {subfigure}{\numberline{(a)}{\ignorespaces {Numbers in the cells denote the speed of the car after moving but before adjusting for the next movement. The maximum allowed speed is 3 cells/time step. The first vehicle from the left reduces its speed to avoid collision. The second vehicle maintains its speed but cannot accelerate for the sake of safety. The third vehicle has free space and increases its speed by 1. No randomness happen in this case.}}}{69}{subfigure.4.1}}
\@writefile{lof}{\contentsline {subfigure}{\numberline{(b)}{\ignorespaces {The same example but now random braking is applied to the second vehicle. Instead of maintaining its speed, it reduces its speed by 1.}}}{69}{subfigure.4.2}}
\newlabel{figC2NaSchModel}{{4.4}{69}{Illustration of NaSch model.\relax \relax }{figure.caption.22}{}}
\newlabel{procCellAutoOrg}{{2}{69}{Original NaSch model\relax \relax }{algorithm.2}{}}
\@writefile{loa}{\contentsline {algorithm}{\numberline {2}{\ignorespaces Original NaSch model\relax }}{69}{algorithm.2}}
\citation{Schreckenberg2002}
\citation{Knospe2000}
\citation{FHWATraffAnalToolVol3}
\citation{Knospe2000}
\@writefile{toc}{\contentsline {subsection}{\numberline {4.4.2}Modified NaSch model and simulator}{70}{subsection.4.4.2}}
\@writefile{brf}{\backcite{Knospe2000}{{70}{4.4.2}{subsection.4.4.2}}}
\@writefile{brf}{\backcite{Schreckenberg2002}{{70}{4.4.2}{subsection.4.4.2}}}
\@writefile{brf}{\backcite{Knospe2000}{{70}{4.4.2}{subsection.4.4.2}}}
\@writefile{brf}{\backcite{FHWATraffAnalToolVol3}{{70}{4.4.2}{subsection.4.4.2}}}
\@writefile{brf}{\backcite{Knospe2000}{{70}{4.4.2}{subsection.4.4.2}}}
\citation{Wiering04}
\citation{AnzacPdeKen}
\newlabel{procC2CellAuto}{{3}{71}{Modified NaSch model\relax \relax }{algorithm.3}{}}
\@writefile{loa}{\contentsline {algorithm}{\numberline {3}{\ignorespaces Modified NaSch model\relax }}{71}{algorithm.3}}
\@writefile{brf}{\backcite{Wiering04}{{71}{4.4.2}{ALC@unique.20}}}
\@writefile{lof}{\contentsline {figure}{\numberline {4.5}{\ignorespaces  The Green Light District simulator. \relax }}{71}{figure.caption.23}}
\newlabel{figGLDworking}{{4.5}{71}{The Green Light District simulator. \relax \relax }{figure.caption.23}{}}
\@writefile{toc}{\contentsline {subsection}{\numberline {4.4.3}Network topologies}{71}{subsection.4.4.3}}
\@writefile{brf}{\backcite{AnzacPdeKen}{{72}{4.4.3}{subsection.4.4.3}}}
\@writefile{lof}{\contentsline {figure}{\numberline {4.6}{\ignorespaces  Simple network of two intersections at node-6 and node-7. The other nodes are input sources.\relax }}{72}{figure.caption.24}}
\newlabel{figNet2junc}{{4.6}{72}{Simple network of two intersections at node-6 and node-7. The other nodes are input sources.\relax \relax }{figure.caption.24}{}}
\@writefile{lof}{\contentsline {figure}{\numberline {4.7}{\ignorespaces  Network of six intersections at nodes 14 to 19. The other nodes are input sources and absorbing places.\relax }}{73}{figure.caption.25}}
\newlabel{figNet6junc}{{4.7}{73}{Network of six intersections at nodes 14 to 19. The other nodes are input sources and absorbing places.\relax \relax }{figure.caption.25}{}}
\@writefile{toc}{\contentsline {subsection}{\numberline {4.4.4}Traffic demand scenarios}{73}{subsection.4.4.4}}
\citation{Koone08}
\citation{Robertson69}
\citation{Luk81,Rakha96}
\@writefile{lot}{\contentsline {table}{\numberline {4.2}{\ignorespaces Traffic demand scenarios for the two-intersection network.\relax }}{74}{table.caption.26}}
\newlabel{tC2TrafficDeman2juncs}{{4.2}{74}{Traffic demand scenarios for the two-intersection network.\relax \relax }{table.caption.26}{}}
\@writefile{lot}{\contentsline {table}{\numberline {4.3}{\ignorespaces Traffic demand scenarios for the six-intersection network.\relax }}{74}{table.caption.27}}
\newlabel{tC2TrafficDemand6juncs}{{4.3}{74}{Traffic demand scenarios for the six-intersection network.\relax \relax }{table.caption.27}{}}
\@writefile{toc}{\contentsline {subsection}{\numberline {4.4.5}Traffic signal settings}{74}{subsection.4.4.5}}
\newlabel{ssec:tss}{{4.4.5}{74}{Traffic signal settings\relax }{subsection.4.4.5}{}}
\@writefile{brf}{\backcite{Koone08}{{74}{4.4.5}{subsection.4.4.5}}}
\@writefile{brf}{\backcite{Robertson69}{{74}{4.4.5}{subsection.4.4.5}}}
\citation{Robertson91}
\citation{Sims89}
\@writefile{lof}{\contentsline {figure}{\numberline {4.8}{\ignorespaces  Test scenarios considered. Each leaf node is a scenario. \relax }}{75}{figure.caption.28}}
\newlabel{figTestScenarios}{{4.8}{75}{Test scenarios considered. Each leaf node is a scenario. \relax \relax }{figure.caption.28}{}}
\@writefile{toc}{\contentsline {subsection}{\numberline {4.4.6}Benchmarking method}{75}{subsection.4.4.6}}
\@writefile{brf}{\backcite{Luk81}{{75}{4.4.6}{subsection.4.4.6}}}
\@writefile{brf}{\backcite{Rakha96}{{75}{4.4.6}{subsection.4.4.6}}}
\FN@pp@footnote@aux{10}{75}
\@writefile{brf}{\backcite{Robertson91}{{75}{4.4.6}{subsection.4.4.6}}}
\@writefile{brf}{\backcite{Sims89}{{75}{4.4.6}{subsection.4.4.6}}}
\@writefile{toc}{\contentsline {subsection}{\numberline {4.4.7}Experimental result}{76}{subsection.4.4.7}}
\newlabel{subsecChap2Result}{{4.4.7}{76}{Experimental result\relax }{subsection.4.4.7}{}}
\@writefile{toc}{\contentsline {subsubsection}{\numberline {4.4.7.1}Moderate demand}{76}{subsubsection.4.4.7.1}}
\@writefile{lot}{\contentsline {table}{\numberline {4.4}{\ignorespaces Average delay (s/vehicle) on the two-intersection network. The largest standard deviation is 0.96, corresponding to ADP control in the 330~m case.\relax }}{76}{table.caption.29}}
\newlabel{tabC2AvgDelayModerate}{{4.4}{76}{Average delay (s/vehicle) on the two-intersection network. The largest standard deviation is 0.96, corresponding to ADP control in the 330~m case.\relax \relax }{table.caption.29}{}}
\@writefile{lot}{\contentsline {table}{\numberline {4.5}{\ignorespaces Average delay (s/vehicle) on the two-intersection network. The largest standard deviation is 0.03, corresponding to ADP control in the 200 m case.\relax }}{76}{table.caption.30}}
\newlabel{tabC2AvgStopModerate}{{4.5}{76}{Average delay (s/vehicle) on the two-intersection network. The largest standard deviation is 0.03, corresponding to ADP control in the 200 m case.\relax \relax }{table.caption.30}{}}
\@writefile{lot}{\contentsline {table}{\numberline {4.6}{\ignorespaces Average objective ($objective = delay + 20 \times stop $) on the two-intersection network. The largest standard deviation is 2.1, corresponding to ADP control in the 330~m case.\relax }}{76}{table.caption.31}}
\newlabel{tabC2AvgObjModerate}{{4.6}{76}{Average objective ($objective = delay + 20 \times stop $) on the two-intersection network. The largest standard deviation is 2.1, corresponding to ADP control in the 330~m case.\relax \relax }{table.caption.31}{}}
\newlabel{fig422a}{{4.9a}{78}{Subfigure 4 4.9a\relax }{subfigure.4.9.1}{}}
\newlabel{sub@fig422a}{{(a)}{a}{Subfigure 4 4.9a\relax }{subfigure.4.9.1}{}}
\newlabel{fig422b}{{4.9b}{78}{Subfigure 4 4.9b\relax }{subfigure.4.9.2}{}}
\newlabel{sub@fig422b}{{(b)}{b}{Subfigure 4 4.9b\relax }{subfigure.4.9.2}{}}
\newlabel{fig422c}{{4.9c}{78}{Subfigure 4 4.9c\relax }{subfigure.4.9.3}{}}
\newlabel{sub@fig422c}{{(c)}{c}{Subfigure 4 4.9c\relax }{subfigure.4.9.3}{}}
\@writefile{lof}{\contentsline {figure}{\numberline {4.9}{\ignorespaces An illustration of voluntary coordination between adjacent intersections}}{78}{figure.caption.32}}
\@writefile{lof}{\contentsline {subfigure}{\numberline{(a)}{\ignorespaces {Traffic and signal status at time 422. The platoon, travelling from west to east, at node-6 is dispatching.}}}{78}{subfigure.9.1}}
\@writefile{lof}{\contentsline {subfigure}{\numberline{(b)}{\ignorespaces {Traffic and signal status at time 431. The platoon is on its way to node-7, and the signal is switching to intergreen.}}}{78}{subfigure.9.2}}
\@writefile{lof}{\contentsline {subfigure}{\numberline{(c)}{\ignorespaces {Traffic and signal status at time 435. The signal at node-7 has switched to green just in time for the platoon to get through.}}}{78}{subfigure.9.3}}
\newlabel{figCoordination}{{4.9}{78}{An illustration of voluntary coordination between adjacent intersections\relax }{figure.caption.32}{}}
\@writefile{lot}{\contentsline {table}{\numberline {4.7}{\ignorespaces Length of the east-west phase (in seconds) during moderate traffic on the two-intersection network. Phase length produced by ADP is averaged over one simulated hour and for two intersections.\relax }}{79}{table.caption.33}}
\newlabel{tabAvgPhaseLength}{{4.7}{79}{Length of the east-west phase (in seconds) during moderate traffic on the two-intersection network. Phase length produced by ADP is averaged over one simulated hour and for two intersections.\relax \relax }{table.caption.33}{}}
\@writefile{toc}{\contentsline {subsubsection}{\numberline {4.4.7.2}Heavy traffic}{79}{subsubsection.4.4.7.2}}
\@writefile{lot}{\contentsline {table}{\numberline {4.8}{\ignorespaces Average delay (s/vehicle) on the two-intersection network. The largest standard deviation is 1.5, corresponding to TRANSYT control.\relax }}{79}{table.caption.34}}
\newlabel{tC2AvgDelayHeavy}{{4.8}{79}{Average delay (s/vehicle) on the two-intersection network. The largest standard deviation is 1.5, corresponding to TRANSYT control.\relax \relax }{table.caption.34}{}}
\@writefile{lot}{\contentsline {table}{\numberline {4.9}{\ignorespaces Average stops (stops/vehicle) on the two-intersection network. The largest standard deviation is 0.03, corresponding to TRANSYT control.\relax }}{79}{table.caption.35}}
\newlabel{tC2AvgStopsHeavy}{{4.9}{79}{Average stops (stops/vehicle) on the two-intersection network. The largest standard deviation is 0.03, corresponding to TRANSYT control.\relax \relax }{table.caption.35}{}}
\@writefile{lot}{\contentsline {table}{\numberline {4.10}{\ignorespaces Average objective ($objective = delay + 20\times stops$) on the two-intersection network. The largest standard deviation is 3.7, corresponding to TRANSYT control\relax }}{80}{table.caption.36}}
\newlabel{tC2AvgObjHeavy}{{4.10}{80}{Average objective ($objective = delay + 20\times stops$) on the two-intersection network. The largest standard deviation is 3.7, corresponding to TRANSYT control\relax \relax }{table.caption.36}{}}
\@writefile{lot}{\contentsline {table}{\numberline {4.11}{\ignorespaces Length of east-west phase (in seconds) in heavy traffic with link length equal 330 m on the two-intersection network (scenario 2). The phase length produced by ADP is averaged over one simulated hour, and for two intersections.\relax }}{80}{table.caption.37}}
\newlabel{tC2AvgPhaseLengthHeavy}{{4.11}{80}{Length of east-west phase (in seconds) in heavy traffic with link length equal 330 m on the two-intersection network (scenario 2). The phase length produced by ADP is averaged over one simulated hour, and for two intersections.\relax \relax }{table.caption.37}{}}
\@writefile{toc}{\contentsline {subsubsection}{\numberline {4.4.7.3}Time-dependent demand}{80}{subsubsection.4.4.7.3}}
\@writefile{lot}{\contentsline {table}{\numberline {4.12}{\ignorespaces Demand profile for the time-dependent scenario (scenario 3).\relax }}{80}{table.caption.38}}
\newlabel{tC2DemandTimeDepend}{{4.12}{80}{Demand profile for the time-dependent scenario (scenario 3).\relax \relax }{table.caption.38}{}}
\@writefile{lot}{\contentsline {table}{\numberline {4.13}{\ignorespaces Average delay (s/vehicle) on the two-intersection network. The largest standard deviation is 1.43, corresponding to TRANSYT control.\relax }}{81}{table.caption.39}}
\newlabel{tC2AvgDelayVaried}{{4.13}{81}{Average delay (s/vehicle) on the two-intersection network. The largest standard deviation is 1.43, corresponding to TRANSYT control.\relax \relax }{table.caption.39}{}}
\@writefile{lot}{\contentsline {table}{\numberline {4.14}{\ignorespaces average stops (stops/vehicle) on the two-intersection network. The largest standard deviation is 0.1, corresponding to TRANSYT control.\relax }}{81}{table.caption.40}}
\newlabel{tC2AvgStopsVaried}{{4.14}{81}{average stops (stops/vehicle) on the two-intersection network. The largest standard deviation is 0.1, corresponding to TRANSYT control.\relax \relax }{table.caption.40}{}}
\@writefile{lot}{\contentsline {table}{\numberline {4.15}{\ignorespaces Average objective ($objective = delay + 20\times stops$) on the two-intersection network. The largest standard deviation is 3.5, corresponding to TRANSYT control.\relax }}{81}{table.caption.41}}
\newlabel{tC2AvgObjVaried}{{4.15}{81}{Average objective ($objective = delay + 20\times stops$) on the two-intersection network. The largest standard deviation is 3.5, corresponding to TRANSYT control.\relax \relax }{table.caption.41}{}}
\@writefile{toc}{\contentsline {subsubsection}{\numberline {4.4.7.4}Large-scale network (scenarios 5 and 6)}{81}{subsubsection.4.4.7.4}}
\@writefile{lot}{\contentsline {table}{\numberline {4.16}{\ignorespaces Average delay (s/vehicle) on the six-intersection network. The largest standard deviation is 6.4, corresponding to TRANSYT control for scenario 6.\relax }}{82}{table.caption.42}}
\newlabel{tC2AvgDelayBigNet}{{4.16}{82}{Average delay (s/vehicle) on the six-intersection network. The largest standard deviation is 6.4, corresponding to TRANSYT control for scenario 6.\relax \relax }{table.caption.42}{}}
\@writefile{lot}{\contentsline {table}{\numberline {4.17}{\ignorespaces Average stops (stops/vehicle) on the six-intersection network. The largest standard deviation is 0.2, corresponding to TRANSYT control for scenario 6.\relax }}{82}{table.caption.43}}
\newlabel{tC2AvgStopsBigNet}{{4.17}{82}{Average stops (stops/vehicle) on the six-intersection network. The largest standard deviation is 0.2, corresponding to TRANSYT control for scenario 6.\relax \relax }{table.caption.43}{}}
\@writefile{lot}{\contentsline {table}{\numberline {4.18}{\ignorespaces Average objective ($objective = delay + 20\times stops$) on the six-intersection network. The largest standard deviation is 20.6, corresponding to TRANSYT control for scenario 6.\relax }}{82}{table.caption.44}}
\newlabel{tC2AvgObjBigNet}{{4.18}{82}{Average objective ($objective = delay + 20\times stops$) on the six-intersection network. The largest standard deviation is 20.6, corresponding to TRANSYT control for scenario 6.\relax \relax }{table.caption.44}{}}
\@writefile{toc}{\contentsline {subsection}{\numberline {4.4.8}Evolutions of approximation}{82}{subsection.4.4.8}}
\@writefile{toc}{\contentsline {section}{\numberline {4.5}Summary}{83}{section.4.5}}
\newlabel{figC2ParamVal1}{{4.10a}{84}{Subfigure 4 4.10a\relax }{subfigure.4.10.1}{}}
\newlabel{sub@figC2ParamVal1}{{(a)}{a}{Subfigure 4 4.10a\relax }{subfigure.4.10.1}{}}
\newlabel{figC2ParamVal2}{{4.10b}{84}{Subfigure 4 4.10b\relax }{subfigure.4.10.2}{}}
\newlabel{sub@figC2ParamVal2}{{(b)}{b}{Subfigure 4 4.10b\relax }{subfigure.4.10.2}{}}
\@writefile{lof}{\contentsline {figure}{\numberline {4.10}{\ignorespaces Evolutions of the parametric value of the approximation functions on the two-intersection network. The first digit of link number represents the origin of traffic and the second digit represents the destination. The green signal state is marked r-, and the red signal state is marked r+.\relax }}{84}{figure.caption.45}}
\@writefile{lof}{\contentsline {subfigure}{\numberline{(a)}{\ignorespaces {Parametric values for link 65.}}}{84}{subfigure.10.1}}
\@writefile{lof}{\contentsline {subfigure}{\numberline{(b)}{\ignorespaces {Parametric values for link 67.}}}{84}{subfigure.10.2}}
\newlabel{figC2ParamValues}{{4.10}{84}{Evolutions of the parametric value of the approximation functions on the two-intersection network. The first digit of link number represents the origin of traffic and the second digit represents the destination. The green signal state is marked r-, and the red signal state is marked r+.\relax \relax }{figure.caption.45}{}}
\FN@pp@footnotehinttrue 
\@setckpt{Chapter2/chapter2}{
\setcounter{page}{86}
\setcounter{equation}{12}
\setcounter{enumi}{4}
\setcounter{enumii}{0}
\setcounter{enumiii}{0}
\setcounter{enumiv}{0}
\setcounter{footnote}{0}
\setcounter{mpfootnote}{0}
\setcounter{part}{0}
\setcounter{chapter}{4}
\setcounter{section}{5}
\setcounter{subsection}{0}
\setcounter{subsubsection}{0}
\setcounter{paragraph}{0}
\setcounter{subparagraph}{0}
\setcounter{figure}{10}
\setcounter{table}{18}
\setcounter{pp@next@reset}{11}
\setcounter{@fnserial}{10}
\setcounter{NAT@ctr}{0}
\setcounter{Item}{6}
\setcounter{Hfootnote}{10}
\setcounter{bookmark@seq@number}{73}
\setcounter{parentequation}{0}
\setcounter{ALC@unique}{20}
\setcounter{ALC@line}{3}
\setcounter{ALC@rem}{3}
\setcounter{ALC@depth}{0}
\setcounter{float@type}{8}
\setcounter{algorithm}{3}
\setcounter{ContinuedFloat}{0}
\setcounter{KVtest}{0}
\setcounter{subfigure}{0}
\setcounter{subfigure@save}{2}
\setcounter{lofdepth}{1}
\setcounter{subtable}{0}
\setcounter{subtable@save}{0}
\setcounter{lotdepth}{1}
\setcounter{r@tfl@t}{0}
\setcounter{@pps}{0}
\setcounter{@ppsavesec}{0}
\setcounter{@ppsaveapp}{0}
\setcounter{section@level}{1}
}
