%!PS-Adobe-2.0 EPSF-2.0
%%Title: C:\Users\tung\Pictures\Diagram\Four phases.dia
%%Creator: Dia v0.97
%%CreationDate: Sat Aug 21 03:24:00 2010
%%For: tung
%%Orientation: Portrait
%%Magnification: 1.0000
%%BoundingBox: 0 0 1200 372
%%BeginSetup
%%EndSetup
%%EndComments
%%BeginProlog
[ /.notdef /.notdef /.notdef /.notdef /.notdef /.notdef /.notdef /.notdef /.notdef /.notdef
/.notdef /.notdef /.notdef /.notdef /.notdef /.notdef /.notdef /.notdef /.notdef /.notdef
/.notdef /.notdef /.notdef /.notdef /.notdef /.notdef /.notdef /.notdef /.notdef /.notdef
/.notdef /.notdef /space /exclam /quotedbl /numbersign /dollar /percent /ampersand /quoteright
/parenleft /parenright /asterisk /plus /comma /hyphen /period /slash /zero /one
/two /three /four /five /six /seven /eight /nine /colon /semicolon
/less /equal /greater /question /at /A /B /C /D /E
/F /G /H /I /J /K /L /M /N /O
/P /Q /R /S /T /U /V /W /X /Y
/Z /bracketleft /backslash /bracketright /asciicircum /underscore /quoteleft /a /b /c
/d /e /f /g /h /i /j /k /l /m
/n /o /p /q /r /s /t /u /v /w
/x /y /z /braceleft /bar /braceright /asciitilde /.notdef /.notdef /.notdef
/.notdef /.notdef /.notdef /.notdef /.notdef /.notdef /.notdef /.notdef /.notdef /.notdef
/.notdef /.notdef /.notdef /.notdef /.notdef /.notdef /.notdef /.notdef /.notdef /.notdef
/.notdef /.notdef /.notdef /.notdef /.notdef /.notdef /.notdef /.notdef /.notdef /.notdef
/space /exclamdown /cent /sterling /currency /yen /brokenbar /section /dieresis /copyright
/ordfeminine /guillemotleft /logicalnot /hyphen /registered /macron /degree /plusminus /twosuperior /threesuperior
/acute /mu /paragraph /periodcentered /cedilla /onesuperior /ordmasculine /guillemotright /onequarter /onehalf
/threequarters /questiondown /Agrave /Aacute /Acircumflex /Atilde /Adieresis /Aring /AE /Ccedilla
/Egrave /Eacute /Ecircumflex /Edieresis /Igrave /Iacute /Icircumflex /Idieresis /Eth /Ntilde
/Ograve /Oacute /Ocircumflex /Otilde /Odieresis /multiply /Oslash /Ugrave /Uacute /Ucircumflex
/Udieresis /Yacute /Thorn /germandbls /agrave /aacute /acircumflex /atilde /adieresis /aring
/ae /ccedilla /egrave /eacute /ecircumflex /edieresis /igrave /iacute /icircumflex /idieresis
/eth /ntilde /ograve /oacute /ocircumflex /otilde /odieresis /divide /oslash /ugrave
/uacute /ucircumflex /udieresis /yacute /thorn /ydieresis] /isolatin1encoding exch def
/cp {closepath} bind def
/c {curveto} bind def
/f {fill} bind def
/a {arc} bind def
/ef {eofill} bind def
/ex {exch} bind def
/gr {grestore} bind def
/gs {gsave} bind def
/sa {save} bind def
/rs {restore} bind def
/l {lineto} bind def
/m {moveto} bind def
/rm {rmoveto} bind def
/n {newpath} bind def
/s {stroke} bind def
/sh {show} bind def
/slc {setlinecap} bind def
/slj {setlinejoin} bind def
/slw {setlinewidth} bind def
/srgb {setrgbcolor} bind def
/rot {rotate} bind def
/sc {scale} bind def
/sd {setdash} bind def
/ff {findfont} bind def
/sf {setfont} bind def
/scf {scalefont} bind def
/sw {stringwidth pop} bind def
/tr {translate} bind def

/ellipsedict 8 dict def
ellipsedict /mtrx matrix put
/ellipse
{ ellipsedict begin
   /endangle exch def
   /startangle exch def
   /yrad exch def
   /xrad exch def
   /y exch def
   /x exch def   /savematrix mtrx currentmatrix def
   x y tr xrad yrad sc
   0 0 1 startangle endangle arc
   savematrix setmatrix
   end
} def

/mergeprocs {
dup length
3 -1 roll
dup
length
dup
5 1 roll
3 -1 roll
add
array cvx
dup
3 -1 roll
0 exch
putinterval
dup
4 2 roll
putinterval
} bind def
/Times-Roman-latin1
    /Times-Roman findfont
    dup length dict begin
	{1 index /FID ne {def} {pop pop} ifelse} forall
	/Encoding isolatin1encoding def
    currentdict end
definefont pop
/Times-Italic-latin1
    /Times-Italic findfont
    dup length dict begin
	{1 index /FID ne {def} {pop pop} ifelse} forall
	/Encoding isolatin1encoding def
    currentdict end
definefont pop
/Times-Bold-latin1
    /Times-Bold findfont
    dup length dict begin
	{1 index /FID ne {def} {pop pop} ifelse} forall
	/Encoding isolatin1encoding def
    currentdict end
definefont pop
/Times-BoldItalic-latin1
    /Times-BoldItalic findfont
    dup length dict begin
	{1 index /FID ne {def} {pop pop} ifelse} forall
	/Encoding isolatin1encoding def
    currentdict end
definefont pop
/AvantGarde-Gothic-latin1
    /AvantGarde-Gothic findfont
    dup length dict begin
	{1 index /FID ne {def} {pop pop} ifelse} forall
	/Encoding isolatin1encoding def
    currentdict end
definefont pop
/AvantGarde-BookOblique-latin1
    /AvantGarde-BookOblique findfont
    dup length dict begin
	{1 index /FID ne {def} {pop pop} ifelse} forall
	/Encoding isolatin1encoding def
    currentdict end
definefont pop
/AvantGarde-Demi-latin1
    /AvantGarde-Demi findfont
    dup length dict begin
	{1 index /FID ne {def} {pop pop} ifelse} forall
	/Encoding isolatin1encoding def
    currentdict end
definefont pop
/AvantGarde-DemiOblique-latin1
    /AvantGarde-DemiOblique findfont
    dup length dict begin
	{1 index /FID ne {def} {pop pop} ifelse} forall
	/Encoding isolatin1encoding def
    currentdict end
definefont pop
/Bookman-Light-latin1
    /Bookman-Light findfont
    dup length dict begin
	{1 index /FID ne {def} {pop pop} ifelse} forall
	/Encoding isolatin1encoding def
    currentdict end
definefont pop
/Bookman-LightItalic-latin1
    /Bookman-LightItalic findfont
    dup length dict begin
	{1 index /FID ne {def} {pop pop} ifelse} forall
	/Encoding isolatin1encoding def
    currentdict end
definefont pop
/Bookman-Demi-latin1
    /Bookman-Demi findfont
    dup length dict begin
	{1 index /FID ne {def} {pop pop} ifelse} forall
	/Encoding isolatin1encoding def
    currentdict end
definefont pop
/Bookman-DemiItalic-latin1
    /Bookman-DemiItalic findfont
    dup length dict begin
	{1 index /FID ne {def} {pop pop} ifelse} forall
	/Encoding isolatin1encoding def
    currentdict end
definefont pop
/Courier-latin1
    /Courier findfont
    dup length dict begin
	{1 index /FID ne {def} {pop pop} ifelse} forall
	/Encoding isolatin1encoding def
    currentdict end
definefont pop
/Courier-Oblique-latin1
    /Courier-Oblique findfont
    dup length dict begin
	{1 index /FID ne {def} {pop pop} ifelse} forall
	/Encoding isolatin1encoding def
    currentdict end
definefont pop
/Courier-Bold-latin1
    /Courier-Bold findfont
    dup length dict begin
	{1 index /FID ne {def} {pop pop} ifelse} forall
	/Encoding isolatin1encoding def
    currentdict end
definefont pop
/Courier-BoldOblique-latin1
    /Courier-BoldOblique findfont
    dup length dict begin
	{1 index /FID ne {def} {pop pop} ifelse} forall
	/Encoding isolatin1encoding def
    currentdict end
definefont pop
/Helvetica-latin1
    /Helvetica findfont
    dup length dict begin
	{1 index /FID ne {def} {pop pop} ifelse} forall
	/Encoding isolatin1encoding def
    currentdict end
definefont pop
/Helvetica-Oblique-latin1
    /Helvetica-Oblique findfont
    dup length dict begin
	{1 index /FID ne {def} {pop pop} ifelse} forall
	/Encoding isolatin1encoding def
    currentdict end
definefont pop
/Helvetica-Bold-latin1
    /Helvetica-Bold findfont
    dup length dict begin
	{1 index /FID ne {def} {pop pop} ifelse} forall
	/Encoding isolatin1encoding def
    currentdict end
definefont pop
/Helvetica-BoldOblique-latin1
    /Helvetica-BoldOblique findfont
    dup length dict begin
	{1 index /FID ne {def} {pop pop} ifelse} forall
	/Encoding isolatin1encoding def
    currentdict end
definefont pop
/Helvetica-Narrow-latin1
    /Helvetica-Narrow findfont
    dup length dict begin
	{1 index /FID ne {def} {pop pop} ifelse} forall
	/Encoding isolatin1encoding def
    currentdict end
definefont pop
/Helvetica-Narrow-Oblique-latin1
    /Helvetica-Narrow-Oblique findfont
    dup length dict begin
	{1 index /FID ne {def} {pop pop} ifelse} forall
	/Encoding isolatin1encoding def
    currentdict end
definefont pop
/Helvetica-Narrow-Bold-latin1
    /Helvetica-Narrow-Bold findfont
    dup length dict begin
	{1 index /FID ne {def} {pop pop} ifelse} forall
	/Encoding isolatin1encoding def
    currentdict end
definefont pop
/Helvetica-Narrow-BoldOblique-latin1
    /Helvetica-Narrow-BoldOblique findfont
    dup length dict begin
	{1 index /FID ne {def} {pop pop} ifelse} forall
	/Encoding isolatin1encoding def
    currentdict end
definefont pop
/NewCenturySchlbk-Roman-latin1
    /NewCenturySchlbk-Roman findfont
    dup length dict begin
	{1 index /FID ne {def} {pop pop} ifelse} forall
	/Encoding isolatin1encoding def
    currentdict end
definefont pop
/NewCenturySchlbk-Italic-latin1
    /NewCenturySchlbk-Italic findfont
    dup length dict begin
	{1 index /FID ne {def} {pop pop} ifelse} forall
	/Encoding isolatin1encoding def
    currentdict end
definefont pop
/NewCenturySchlbk-Bold-latin1
    /NewCenturySchlbk-Bold findfont
    dup length dict begin
	{1 index /FID ne {def} {pop pop} ifelse} forall
	/Encoding isolatin1encoding def
    currentdict end
definefont pop
/NewCenturySchlbk-BoldItalic-latin1
    /NewCenturySchlbk-BoldItalic findfont
    dup length dict begin
	{1 index /FID ne {def} {pop pop} ifelse} forall
	/Encoding isolatin1encoding def
    currentdict end
definefont pop
/Palatino-Roman-latin1
    /Palatino-Roman findfont
    dup length dict begin
	{1 index /FID ne {def} {pop pop} ifelse} forall
	/Encoding isolatin1encoding def
    currentdict end
definefont pop
/Palatino-Italic-latin1
    /Palatino-Italic findfont
    dup length dict begin
	{1 index /FID ne {def} {pop pop} ifelse} forall
	/Encoding isolatin1encoding def
    currentdict end
definefont pop
/Palatino-Bold-latin1
    /Palatino-Bold findfont
    dup length dict begin
	{1 index /FID ne {def} {pop pop} ifelse} forall
	/Encoding isolatin1encoding def
    currentdict end
definefont pop
/Palatino-BoldItalic-latin1
    /Palatino-BoldItalic findfont
    dup length dict begin
	{1 index /FID ne {def} {pop pop} ifelse} forall
	/Encoding isolatin1encoding def
    currentdict end
definefont pop
/Symbol-latin1
    /Symbol findfont
definefont pop
/ZapfChancery-MediumItalic-latin1
    /ZapfChancery-MediumItalic findfont
    dup length dict begin
	{1 index /FID ne {def} {pop pop} ifelse} forall
	/Encoding isolatin1encoding def
    currentdict end
definefont pop
/ZapfDingbats-latin1
    /ZapfDingbats findfont
    dup length dict begin
	{1 index /FID ne {def} {pop pop} ifelse} forall
	/Encoding isolatin1encoding def
    currentdict end
definefont pop
28.346000 -28.346000 scale
-7.880931 -21.132500 translate
%%EndProlog


0.150000 slw
[] 0 sd
[] 0 sd
0 slc
0.000000 0.000000 0.000000 srgb
n 11.000000 8.100000 m 11.000000 11.575000 l s
0 slj
n 10.750000 11.575000 m 11.000000 12.075000 l 11.250000 11.575000 l ef
0.150000 slw
[] 0 sd
0 slj
n 10.750000 11.575000 m 11.000000 12.075000 l 11.250000 11.575000 l cp s
0.150000 slw
[] 0 sd
[] 0 sd
0 slc
n 10.016400 10.050000 m 8.408243 11.645077 l s
0 slj
n 8.232190 11.467580 m 8.053249 11.997184 l 8.584297 11.822574 l ef
0.150000 slw
[] 0 sd
0 slj
n 8.232190 11.467580 m 8.053249 11.997184 l 8.584297 11.822574 l cp s
0.150000 slw
[] 0 sd
[] 0 sd
0 slc
n 9.950000 10.150000 m 9.950000 8.150000 l s
0.150000 slw
[] 0 sd
[] 0 sd
0 slc
n 12.014100 18.050000 m 12.002027 14.624996 l s
0 slj
n 12.252025 14.624115 m 12.000264 14.125000 l 11.752028 14.625878 l ef
0.150000 slw
[] 0 sd
0 slj
n 12.252025 14.624115 m 12.000264 14.125000 l 11.752028 14.625878 l cp s
0.150000 slw
[] 0 sd
[] 0 sd
0 slc
n 13.050000 15.950000 m 14.505973 14.505040 l s
0 slj
n 14.682077 14.682486 m 14.860866 14.152831 l 14.329869 14.327593 l ef
0.150000 slw
[] 0 sd
0 slj
n 14.682077 14.682486 m 14.860866 14.152831 l 14.329869 14.327593 l cp s
0.150000 slw
[] 0 sd
[] 0 sd
0 slc
n 13.014100 18.000000 m 13.014100 16.000000 l s
0.150000 slw
[] 0 sd
[] 0 sd
0 slc
n 21.055900 15.843100 m 19.489400 14.520880 l s
0 slj
n 19.650653 14.329837 m 19.107313 14.198376 l 19.328148 14.711924 l ef
0.150000 slw
[] 0 sd
0 slj
n 19.650653 14.329837 m 19.107313 14.198376 l 19.328148 14.711924 l cp s
0.150000 slw
[] 0 sd
[] 0 sd
0 slc
n 21.020000 17.893100 m 21.020000 15.893100 l s
0.150000 slw
[] 0 sd
[] 0 sd
0 slc
n 21.000000 12.050000 m 22.583125 13.553969 l s
0 slj
n 22.410938 13.735219 m 22.945625 13.898344 l 22.755313 13.372719 l ef
0.150000 slw
[] 0 sd
0 slj
n 22.410938 13.735219 m 22.945625 13.898344 l 22.755313 13.372719 l cp s
0.150000 slw
[] 0 sd
[] 0 sd
0 slc
n 21.015000 12.068100 m 21.015000 10.068100 l s
0.150000 slw
[] 0 sd
[] 0 sd
0 slc
n 28.000000 14.000000 m 31.275000 14.000000 l s
0 slj
n 31.275000 14.250000 m 31.775000 14.000000 l 31.275000 13.750000 l ef
0.150000 slw
[] 0 sd
0 slj
n 31.275000 14.250000 m 31.775000 14.000000 l 31.275000 13.750000 l cp s
0.150000 slw
[] 0 sd
[] 0 sd
0 slc
n 30.051000 15.031900 m 31.634125 16.535869 l s
0 slj
n 31.461938 16.717119 m 31.996625 16.880244 l 31.806313 16.354619 l ef
0.150000 slw
[] 0 sd
0 slj
n 31.461938 16.717119 m 31.996625 16.880244 l 31.806313 16.354619 l cp s
0.150000 slw
[] 0 sd
[] 0 sd
0 slc
n 30.066000 15.050000 m 28.100000 15.050000 l s
0.150000 slw
[] 0 sd
[] 0 sd
0 slc
n 35.950000 11.950000 m 34.375691 10.343811 l s
0 slj
n 34.554230 10.168815 m 34.025699 9.986732 l 34.197151 10.518807 l ef
0.150000 slw
[] 0 sd
0 slj
n 34.554230 10.168815 m 34.025699 9.986732 l 34.197151 10.518807 l cp s
0.150000 slw
[] 0 sd
[] 0 sd
0 slc
n 38.050000 11.950000 m 36.000000 11.950000 l s
0.150000 slw
[] 0 sd
[] 0 sd
0 slc
n 44.121000 13.981000 m 45.593630 12.506803 l s
0 slj
n 45.770501 12.683485 m 45.946995 12.153061 l 45.416759 12.330120 l ef
0.150000 slw
[] 0 sd
0 slj
n 45.770501 12.683485 m 45.946995 12.153061 l 45.416759 12.330120 l cp s
0.150000 slw
[] 0 sd
[] 0 sd
0 slc
n 44.136000 13.999200 m 42.170000 13.999200 l s
0.150000 slw
[] 0 sd
[] 0 sd
0 slc
n 38.000000 12.950000 m 34.625000 12.950000 l s
0 slj
n 34.625000 12.700000 m 34.125000 12.950000 l 34.625000 13.200000 l ef
0.150000 slw
[] 0 sd
0 slj
n 34.625000 12.700000 m 34.125000 12.950000 l 34.625000 13.200000 l cp s
0.150000 slw
[] 0 sd
[] 0 sd
0 slc
n 48.050000 13.950000 m 46.356586 15.643414 l s
0 slj
n 46.179810 15.466637 m 46.003033 15.996967 l 46.533363 15.820190 l ef
0.150000 slw
[] 0 sd
0 slj
n 46.179810 15.466637 m 46.003033 15.996967 l 46.533363 15.820190 l cp s
0.150000 slw
[] 0 sd
[] 0 sd
0 slc
n 50.139200 13.961600 m 48.089200 13.961600 l s
/Helvetica-latin1 ff 0.987778 scf sf
(1\)) 10.850000 20.688333 m
 gs 1 -1 sc sh gr
/Helvetica-latin1 ff 0.987778 scf sf
(3\)) 32.695000 20.643333 m
 gs 1 -1 sc sh gr
/Helvetica-latin1 ff 0.987778 scf sf
(2\)) 19.895000 20.593333 m
 gs 1 -1 sc sh gr
/Helvetica-latin1 ff 0.987778 scf sf
(4\)) 44.895000 20.643333 m
 gs 1 -1 sc sh gr
showpage
