%!PS-Adobe-2.0 EPSF-2.0
%%Title: C:\Users\tung\Pictures\Diagram\Grid4New.dia
%%Creator: Dia v0.97
%%CreationDate: Tue Aug 31 11:10:31 2010
%%For: tung
%%Orientation: Portrait
%%Magnification: 1.0000
%%BoundingBox: 0 0 727 661
%%BeginSetup
%%EndSetup
%%EndComments
%%BeginProlog
[ /.notdef /.notdef /.notdef /.notdef /.notdef /.notdef /.notdef /.notdef /.notdef /.notdef
/.notdef /.notdef /.notdef /.notdef /.notdef /.notdef /.notdef /.notdef /.notdef /.notdef
/.notdef /.notdef /.notdef /.notdef /.notdef /.notdef /.notdef /.notdef /.notdef /.notdef
/.notdef /.notdef /space /exclam /quotedbl /numbersign /dollar /percent /ampersand /quoteright
/parenleft /parenright /asterisk /plus /comma /hyphen /period /slash /zero /one
/two /three /four /five /six /seven /eight /nine /colon /semicolon
/less /equal /greater /question /at /A /B /C /D /E
/F /G /H /I /J /K /L /M /N /O
/P /Q /R /S /T /U /V /W /X /Y
/Z /bracketleft /backslash /bracketright /asciicircum /underscore /quoteleft /a /b /c
/d /e /f /g /h /i /j /k /l /m
/n /o /p /q /r /s /t /u /v /w
/x /y /z /braceleft /bar /braceright /asciitilde /.notdef /.notdef /.notdef
/.notdef /.notdef /.notdef /.notdef /.notdef /.notdef /.notdef /.notdef /.notdef /.notdef
/.notdef /.notdef /.notdef /.notdef /.notdef /.notdef /.notdef /.notdef /.notdef /.notdef
/.notdef /.notdef /.notdef /.notdef /.notdef /.notdef /.notdef /.notdef /.notdef /.notdef
/space /exclamdown /cent /sterling /currency /yen /brokenbar /section /dieresis /copyright
/ordfeminine /guillemotleft /logicalnot /hyphen /registered /macron /degree /plusminus /twosuperior /threesuperior
/acute /mu /paragraph /periodcentered /cedilla /onesuperior /ordmasculine /guillemotright /onequarter /onehalf
/threequarters /questiondown /Agrave /Aacute /Acircumflex /Atilde /Adieresis /Aring /AE /Ccedilla
/Egrave /Eacute /Ecircumflex /Edieresis /Igrave /Iacute /Icircumflex /Idieresis /Eth /Ntilde
/Ograve /Oacute /Ocircumflex /Otilde /Odieresis /multiply /Oslash /Ugrave /Uacute /Ucircumflex
/Udieresis /Yacute /Thorn /germandbls /agrave /aacute /acircumflex /atilde /adieresis /aring
/ae /ccedilla /egrave /eacute /ecircumflex /edieresis /igrave /iacute /icircumflex /idieresis
/eth /ntilde /ograve /oacute /ocircumflex /otilde /odieresis /divide /oslash /ugrave
/uacute /ucircumflex /udieresis /yacute /thorn /ydieresis] /isolatin1encoding exch def
/cp {closepath} bind def
/c {curveto} bind def
/f {fill} bind def
/a {arc} bind def
/ef {eofill} bind def
/ex {exch} bind def
/gr {grestore} bind def
/gs {gsave} bind def
/sa {save} bind def
/rs {restore} bind def
/l {lineto} bind def
/m {moveto} bind def
/rm {rmoveto} bind def
/n {newpath} bind def
/s {stroke} bind def
/sh {show} bind def
/slc {setlinecap} bind def
/slj {setlinejoin} bind def
/slw {setlinewidth} bind def
/srgb {setrgbcolor} bind def
/rot {rotate} bind def
/sc {scale} bind def
/sd {setdash} bind def
/ff {findfont} bind def
/sf {setfont} bind def
/scf {scalefont} bind def
/sw {stringwidth pop} bind def
/tr {translate} bind def

/ellipsedict 8 dict def
ellipsedict /mtrx matrix put
/ellipse
{ ellipsedict begin
   /endangle exch def
   /startangle exch def
   /yrad exch def
   /xrad exch def
   /y exch def
   /x exch def   /savematrix mtrx currentmatrix def
   x y tr xrad yrad sc
   0 0 1 startangle endangle arc
   savematrix setmatrix
   end
} def

/mergeprocs {
dup length
3 -1 roll
dup
length
dup
5 1 roll
3 -1 roll
add
array cvx
dup
3 -1 roll
0 exch
putinterval
dup
4 2 roll
putinterval
} bind def
/Times-Roman-latin1
    /Times-Roman findfont
    dup length dict begin
	{1 index /FID ne {def} {pop pop} ifelse} forall
	/Encoding isolatin1encoding def
    currentdict end
definefont pop
/Times-Italic-latin1
    /Times-Italic findfont
    dup length dict begin
	{1 index /FID ne {def} {pop pop} ifelse} forall
	/Encoding isolatin1encoding def
    currentdict end
definefont pop
/Times-Bold-latin1
    /Times-Bold findfont
    dup length dict begin
	{1 index /FID ne {def} {pop pop} ifelse} forall
	/Encoding isolatin1encoding def
    currentdict end
definefont pop
/Times-BoldItalic-latin1
    /Times-BoldItalic findfont
    dup length dict begin
	{1 index /FID ne {def} {pop pop} ifelse} forall
	/Encoding isolatin1encoding def
    currentdict end
definefont pop
/AvantGarde-Gothic-latin1
    /AvantGarde-Gothic findfont
    dup length dict begin
	{1 index /FID ne {def} {pop pop} ifelse} forall
	/Encoding isolatin1encoding def
    currentdict end
definefont pop
/AvantGarde-BookOblique-latin1
    /AvantGarde-BookOblique findfont
    dup length dict begin
	{1 index /FID ne {def} {pop pop} ifelse} forall
	/Encoding isolatin1encoding def
    currentdict end
definefont pop
/AvantGarde-Demi-latin1
    /AvantGarde-Demi findfont
    dup length dict begin
	{1 index /FID ne {def} {pop pop} ifelse} forall
	/Encoding isolatin1encoding def
    currentdict end
definefont pop
/AvantGarde-DemiOblique-latin1
    /AvantGarde-DemiOblique findfont
    dup length dict begin
	{1 index /FID ne {def} {pop pop} ifelse} forall
	/Encoding isolatin1encoding def
    currentdict end
definefont pop
/Bookman-Light-latin1
    /Bookman-Light findfont
    dup length dict begin
	{1 index /FID ne {def} {pop pop} ifelse} forall
	/Encoding isolatin1encoding def
    currentdict end
definefont pop
/Bookman-LightItalic-latin1
    /Bookman-LightItalic findfont
    dup length dict begin
	{1 index /FID ne {def} {pop pop} ifelse} forall
	/Encoding isolatin1encoding def
    currentdict end
definefont pop
/Bookman-Demi-latin1
    /Bookman-Demi findfont
    dup length dict begin
	{1 index /FID ne {def} {pop pop} ifelse} forall
	/Encoding isolatin1encoding def
    currentdict end
definefont pop
/Bookman-DemiItalic-latin1
    /Bookman-DemiItalic findfont
    dup length dict begin
	{1 index /FID ne {def} {pop pop} ifelse} forall
	/Encoding isolatin1encoding def
    currentdict end
definefont pop
/Courier-latin1
    /Courier findfont
    dup length dict begin
	{1 index /FID ne {def} {pop pop} ifelse} forall
	/Encoding isolatin1encoding def
    currentdict end
definefont pop
/Courier-Oblique-latin1
    /Courier-Oblique findfont
    dup length dict begin
	{1 index /FID ne {def} {pop pop} ifelse} forall
	/Encoding isolatin1encoding def
    currentdict end
definefont pop
/Courier-Bold-latin1
    /Courier-Bold findfont
    dup length dict begin
	{1 index /FID ne {def} {pop pop} ifelse} forall
	/Encoding isolatin1encoding def
    currentdict end
definefont pop
/Courier-BoldOblique-latin1
    /Courier-BoldOblique findfont
    dup length dict begin
	{1 index /FID ne {def} {pop pop} ifelse} forall
	/Encoding isolatin1encoding def
    currentdict end
definefont pop
/Helvetica-latin1
    /Helvetica findfont
    dup length dict begin
	{1 index /FID ne {def} {pop pop} ifelse} forall
	/Encoding isolatin1encoding def
    currentdict end
definefont pop
/Helvetica-Oblique-latin1
    /Helvetica-Oblique findfont
    dup length dict begin
	{1 index /FID ne {def} {pop pop} ifelse} forall
	/Encoding isolatin1encoding def
    currentdict end
definefont pop
/Helvetica-Bold-latin1
    /Helvetica-Bold findfont
    dup length dict begin
	{1 index /FID ne {def} {pop pop} ifelse} forall
	/Encoding isolatin1encoding def
    currentdict end
definefont pop
/Helvetica-BoldOblique-latin1
    /Helvetica-BoldOblique findfont
    dup length dict begin
	{1 index /FID ne {def} {pop pop} ifelse} forall
	/Encoding isolatin1encoding def
    currentdict end
definefont pop
/Helvetica-Narrow-latin1
    /Helvetica-Narrow findfont
    dup length dict begin
	{1 index /FID ne {def} {pop pop} ifelse} forall
	/Encoding isolatin1encoding def
    currentdict end
definefont pop
/Helvetica-Narrow-Oblique-latin1
    /Helvetica-Narrow-Oblique findfont
    dup length dict begin
	{1 index /FID ne {def} {pop pop} ifelse} forall
	/Encoding isolatin1encoding def
    currentdict end
definefont pop
/Helvetica-Narrow-Bold-latin1
    /Helvetica-Narrow-Bold findfont
    dup length dict begin
	{1 index /FID ne {def} {pop pop} ifelse} forall
	/Encoding isolatin1encoding def
    currentdict end
definefont pop
/Helvetica-Narrow-BoldOblique-latin1
    /Helvetica-Narrow-BoldOblique findfont
    dup length dict begin
	{1 index /FID ne {def} {pop pop} ifelse} forall
	/Encoding isolatin1encoding def
    currentdict end
definefont pop
/NewCenturySchlbk-Roman-latin1
    /NewCenturySchlbk-Roman findfont
    dup length dict begin
	{1 index /FID ne {def} {pop pop} ifelse} forall
	/Encoding isolatin1encoding def
    currentdict end
definefont pop
/NewCenturySchlbk-Italic-latin1
    /NewCenturySchlbk-Italic findfont
    dup length dict begin
	{1 index /FID ne {def} {pop pop} ifelse} forall
	/Encoding isolatin1encoding def
    currentdict end
definefont pop
/NewCenturySchlbk-Bold-latin1
    /NewCenturySchlbk-Bold findfont
    dup length dict begin
	{1 index /FID ne {def} {pop pop} ifelse} forall
	/Encoding isolatin1encoding def
    currentdict end
definefont pop
/NewCenturySchlbk-BoldItalic-latin1
    /NewCenturySchlbk-BoldItalic findfont
    dup length dict begin
	{1 index /FID ne {def} {pop pop} ifelse} forall
	/Encoding isolatin1encoding def
    currentdict end
definefont pop
/Palatino-Roman-latin1
    /Palatino-Roman findfont
    dup length dict begin
	{1 index /FID ne {def} {pop pop} ifelse} forall
	/Encoding isolatin1encoding def
    currentdict end
definefont pop
/Palatino-Italic-latin1
    /Palatino-Italic findfont
    dup length dict begin
	{1 index /FID ne {def} {pop pop} ifelse} forall
	/Encoding isolatin1encoding def
    currentdict end
definefont pop
/Palatino-Bold-latin1
    /Palatino-Bold findfont
    dup length dict begin
	{1 index /FID ne {def} {pop pop} ifelse} forall
	/Encoding isolatin1encoding def
    currentdict end
definefont pop
/Palatino-BoldItalic-latin1
    /Palatino-BoldItalic findfont
    dup length dict begin
	{1 index /FID ne {def} {pop pop} ifelse} forall
	/Encoding isolatin1encoding def
    currentdict end
definefont pop
/Symbol-latin1
    /Symbol findfont
definefont pop
/ZapfChancery-MediumItalic-latin1
    /ZapfChancery-MediumItalic findfont
    dup length dict begin
	{1 index /FID ne {def} {pop pop} ifelse} forall
	/Encoding isolatin1encoding def
    currentdict end
definefont pop
/ZapfDingbats-latin1
    /ZapfDingbats findfont
    dup length dict begin
	{1 index /FID ne {def} {pop pop} ifelse} forall
	/Encoding isolatin1encoding def
    currentdict end
definefont pop
28.346000 -28.346000 scale
0.260000 -28.000000 translate
%%EndProlog


1.000000 slw
[] 0 sd
[] 0 sd
0 slj
1.000000 1.000000 1.000000 srgb
n 8.550000 5.550000 m 8.550000 6.500000 l 9.500000 6.500000 l 9.500000 5.550000 l f
0.000000 0.000000 0.000000 srgb
n 8.550000 5.550000 m 8.550000 6.500000 l 9.500000 6.500000 l 9.500000 5.550000 l cp s
1.000000 slw
[] 0 sd
[] 0 sd
0 slj
1.000000 1.000000 1.000000 srgb
n 15.495000 5.500000 m 15.495000 6.450000 l 16.445000 6.450000 l 16.445000 5.500000 l f
0.000000 0.000000 0.000000 srgb
n 15.495000 5.500000 m 15.495000 6.450000 l 16.445000 6.450000 l 16.445000 5.500000 l cp s
1.000000 slw
[] 0 sd
[] 0 sd
0 slj
1.000000 1.000000 1.000000 srgb
n 8.545000 26.550000 m 8.545000 27.500000 l 9.495000 27.500000 l 9.495000 26.550000 l f
0.000000 0.000000 0.000000 srgb
n 8.545000 26.550000 m 8.545000 27.500000 l 9.495000 27.500000 l 9.495000 26.550000 l cp s
1.000000 slw
[] 0 sd
[] 0 sd
0 slj
1.000000 1.000000 1.000000 srgb
n 15.490000 26.500000 m 15.490000 27.450000 l 16.440000 27.450000 l 16.440000 26.500000 l f
0.000000 0.000000 0.000000 srgb
n 15.490000 26.500000 m 15.490000 27.450000 l 16.440000 27.450000 l 16.440000 26.500000 l cp s
1.000000 slw
[] 0 sd
[] 0 sd
0 slj
1.000000 1.000000 1.000000 srgb
n 1.695000 12.500000 m 1.695000 13.450000 l 2.645000 13.450000 l 2.645000 12.500000 l f
0.000000 0.000000 0.000000 srgb
n 1.695000 12.500000 m 1.695000 13.450000 l 2.645000 13.450000 l 2.645000 12.500000 l cp s
1.000000 slw
[] 0 sd
[] 0 sd
0 slj
1.000000 1.000000 1.000000 srgb
n 8.640000 12.450000 m 8.640000 13.400000 l 9.590000 13.400000 l 9.590000 12.450000 l f
0.000000 0.000000 0.000000 srgb
n 8.640000 12.450000 m 8.640000 13.400000 l 9.590000 13.400000 l 9.590000 12.450000 l cp s
1.000000 slw
[] 0 sd
[] 0 sd
0 slj
1.000000 1.000000 1.000000 srgb
n 1.595000 19.600000 m 1.595000 20.550000 l 2.545000 20.550000 l 2.545000 19.600000 l f
0.000000 0.000000 0.000000 srgb
n 1.595000 19.600000 m 1.595000 20.550000 l 2.545000 20.550000 l 2.545000 19.600000 l cp s
1.000000 slw
[] 0 sd
[] 0 sd
0 slj
1.000000 1.000000 1.000000 srgb
n 8.540000 19.550000 m 8.540000 20.500000 l 9.490000 20.500000 l 9.490000 19.550000 l f
0.000000 0.000000 0.000000 srgb
n 8.540000 19.550000 m 8.540000 20.500000 l 9.490000 20.500000 l 9.490000 19.550000 l cp s
1.000000 slw
[] 0 sd
[] 0 sd
0 slj
1.000000 1.000000 1.000000 srgb
n 15.545000 12.450000 m 15.545000 13.400000 l 16.495000 13.400000 l 16.495000 12.450000 l f
0.000000 0.000000 0.000000 srgb
n 15.545000 12.450000 m 15.545000 13.400000 l 16.495000 13.400000 l 16.495000 12.450000 l cp s
1.000000 slw
[] 0 sd
[] 0 sd
0 slj
1.000000 1.000000 1.000000 srgb
n 22.490000 12.400000 m 22.490000 13.350000 l 23.440000 13.350000 l 23.440000 12.400000 l f
0.000000 0.000000 0.000000 srgb
n 22.490000 12.400000 m 22.490000 13.350000 l 23.440000 13.350000 l 23.440000 12.400000 l cp s
1.000000 slw
[] 0 sd
[] 0 sd
0 slj
1.000000 1.000000 1.000000 srgb
n 15.445000 19.500000 m 15.445000 20.450000 l 16.395000 20.450000 l 16.395000 19.500000 l f
0.000000 0.000000 0.000000 srgb
n 15.445000 19.500000 m 15.445000 20.450000 l 16.395000 20.450000 l 16.395000 19.500000 l cp s
1.000000 slw
[] 0 sd
[] 0 sd
0 slj
1.000000 1.000000 1.000000 srgb
n 22.390000 19.450000 m 22.390000 20.400000 l 23.340000 20.400000 l 23.340000 19.450000 l f
0.000000 0.000000 0.000000 srgb
n 22.390000 19.450000 m 22.390000 20.400000 l 23.340000 20.400000 l 23.340000 19.450000 l cp s
0.700000 slw
[] 0 sd
[] 0 sd
0 slc
n 15.970000 6.450000 m 15.950000 12.700000 l s
0.700000 slw
[] 0 sd
[] 0 sd
0 slc
n 9.000000 6.850000 m 8.996120 13.201100 l s
0.700000 slw
[] 0 sd
[] 0 sd
0 slc
n 15.970000 13.600000 m 15.927648 18.999918 l s
0.700000 slw
[] 0 sd
[] 0 sd
0 slc
n 8.999100 13.751100 m 9.012529 19.050064 l s
0.700000 slw
[] 0 sd
[] 0 sd
0 slc
n 15.926268 20.949976 m 15.958732 26.000024 l s
0.700000 slw
[] 0 sd
[] 0 sd
0 slc
n 9.015696 20.999976 m 9.019304 26.050024 l s
0.700000 slw
[] 0 sd
[] 0 sd
0 slc
n 15.545000 12.925000 m 10.090253 12.925000 l s
0.700000 slw
[] 0 sd
[] 0 sd
0 slc
n 22.149700 12.900000 m 16.992731 12.921033 l s
0.700000 slw
[] 0 sd
[] 0 sd
0 slc
n 8.139631 12.932022 m 3.145369 12.967978 l s
0.700000 slw
[] 0 sd
[] 0 sd
0 slc
n 8.039631 20.032022 m 3.045369 20.067978 l s
0.700000 slw
[] 0 sd
[] 0 sd
0 slc
n 14.945191 19.982059 m 9.989809 20.017941 l s
0.700000 slw
[] 0 sd
[] 0 sd
0 slc
n 21.889631 19.932022 m 16.895369 19.967978 l s
/Helvetica-latin1 ff 1.234722 scf sf
(1) 6.850000 5.885417 m
 gs 1 -1 sc sh gr
(2) 13.945000 5.845417 m
 gs 1 -1 sc sh gr
(3) 24.545000 13.145417 m
 gs 1 -1 sc sh gr
(4) 24.495000 19.945417 m
 gs 1 -1 sc sh gr
(5) 13.995000 26.845417 m
 gs 1 -1 sc sh gr
(6) 7.045000 26.945417 m
 gs 1 -1 sc sh gr
(7) -0.205000 20.145417 m
 gs 1 -1 sc sh gr
(8) -0.260000 12.945417 m
 gs 1 -1 sc sh gr
(9) 6.835000 11.695417 m
 gs 1 -1 sc sh gr
(10) 13.330000 11.745417 m
 gs 1 -1 sc sh gr
(11) 6.925000 18.995417 m
 gs 1 -1 sc sh gr
(12) 13.270000 18.895417 m
 gs 1 -1 sc sh gr
showpage
