\select@language {english}
\addvspace {10\p@ }
\addvspace {10\p@ }
\addvspace {10\p@ }
\contentsline {table}{\numberline {3.1}{\ignorespaces An example of value iteration. Convergence occurs after the 19$^{\textrm {th}}$\relax }}{45}{table.caption.16}
\addvspace {10\p@ }
\contentsline {table}{\numberline {4.1}{\ignorespaces Example of signal states for a hypothetical simple intersection.\relax }}{62}{table.caption.20}
\contentsline {table}{\numberline {4.2}{\ignorespaces Traffic demand scenarios for the two-intersection network.\relax }}{74}{table.caption.26}
\contentsline {table}{\numberline {4.3}{\ignorespaces Traffic demand scenarios for the six-intersection network.\relax }}{74}{table.caption.27}
\contentsline {table}{\numberline {4.4}{\ignorespaces Average delay (s/vehicle) on the two-intersection network. The largest standard deviation is 0.96, corresponding to ADP control in the 330~m case.\relax }}{76}{table.caption.29}
\contentsline {table}{\numberline {4.5}{\ignorespaces Average delay (s/vehicle) on the two-intersection network. The largest standard deviation is 0.03, corresponding to ADP control in the 200 m case.\relax }}{76}{table.caption.30}
\contentsline {table}{\numberline {4.6}{\ignorespaces Average objective ($objective = delay + 20 \times stop $) on the two-intersection network. The largest standard deviation is 2.1, corresponding to ADP control in the 330~m case.\relax }}{76}{table.caption.31}
\contentsline {table}{\numberline {4.7}{\ignorespaces Length of the east-west phase (in seconds) during moderate traffic on the two-intersection network. Phase length produced by ADP is averaged over one simulated hour and for two intersections.\relax }}{79}{table.caption.33}
\contentsline {table}{\numberline {4.8}{\ignorespaces Average delay (s/vehicle) on the two-intersection network. The largest standard deviation is 1.5, corresponding to TRANSYT control.\relax }}{79}{table.caption.34}
\contentsline {table}{\numberline {4.9}{\ignorespaces Average stops (stops/vehicle) on the two-intersection network. The largest standard deviation is 0.03, corresponding to TRANSYT control.\relax }}{79}{table.caption.35}
\contentsline {table}{\numberline {4.10}{\ignorespaces Average objective ($objective = delay + 20\times stops$) on the two-intersection network. The largest standard deviation is 3.7, corresponding to TRANSYT control\relax }}{80}{table.caption.36}
\contentsline {table}{\numberline {4.11}{\ignorespaces Length of east-west phase (in seconds) in heavy traffic with link length equal 330 m on the two-intersection network (scenario 2). The phase length produced by ADP is averaged over one simulated hour, and for two intersections.\relax }}{80}{table.caption.37}
\contentsline {table}{\numberline {4.12}{\ignorespaces Demand profile for the time-dependent scenario (scenario 3).\relax }}{80}{table.caption.38}
\contentsline {table}{\numberline {4.13}{\ignorespaces Average delay (s/vehicle) on the two-intersection network. The largest standard deviation is 1.43, corresponding to TRANSYT control.\relax }}{81}{table.caption.39}
\contentsline {table}{\numberline {4.14}{\ignorespaces average stops (stops/vehicle) on the two-intersection network. The largest standard deviation is 0.1, corresponding to TRANSYT control.\relax }}{81}{table.caption.40}
\contentsline {table}{\numberline {4.15}{\ignorespaces Average objective ($objective = delay + 20\times stops$) on the two-intersection network. The largest standard deviation is 3.5, corresponding to TRANSYT control.\relax }}{81}{table.caption.41}
\contentsline {table}{\numberline {4.16}{\ignorespaces Average delay (s/vehicle) on the six-intersection network. The largest standard deviation is 6.4, corresponding to TRANSYT control for scenario 6.\relax }}{82}{table.caption.42}
\contentsline {table}{\numberline {4.17}{\ignorespaces Average stops (stops/vehicle) on the six-intersection network. The largest standard deviation is 0.2, corresponding to TRANSYT control for scenario 6.\relax }}{82}{table.caption.43}
\contentsline {table}{\numberline {4.18}{\ignorespaces Average objective ($objective = delay + 20\times stops$) on the six-intersection network. The largest standard deviation is 20.6, corresponding to TRANSYT control for scenario 6.\relax }}{82}{table.caption.44}
\addvspace {10\p@ }
\contentsline {table}{\numberline {5.1}{\ignorespaces Fuel consumption and tailpipe-out CO$_2$\ emission.\relax }}{92}{table.caption.48}
\contentsline {table}{\numberline {5.2}{\ignorespaces Lengths of main phase output by TRANSYT. Cycle length = 100~s.\relax }}{100}{table.caption.52}
\contentsline {table}{\numberline {5.3}{\ignorespaces Starting time of each phase. The time index starts at 0, and I.G. stands for intergreen.\relax }}{100}{table.caption.53}
\contentsline {table}{\numberline {5.4}{\ignorespaces Traffic demand.\relax }}{101}{table.caption.54}
\contentsline {table}{\numberline {5.5}{\ignorespaces Fuel consumption and emissions of one car on empty roads. CO emission is one order of magnitude smaller than CO$_2$. HC and NO$_x$ emissions are three orders of magnitude smaller than CO$_2$. \relax }}{102}{table.caption.56}
\contentsline {table}{\numberline {5.6}{\ignorespaces Fuel consumption and CO$_2$\ emissions for each type of car. The unit of the mean and SD values is g/km, and the unit of improvement is percentage. \relax }}{104}{table.caption.58}
\addvspace {10\p@ }
\contentsline {table}{\numberline {6.1}{\ignorespaces TRANSYT schedules created with $k=40$}}{140}{table.caption.76}
\contentsline {table}{\numberline {6.2}{\ignorespaces Performance of benchmark system, Fplus\_0\%, $k=40$~s. \relax }}{140}{table.caption.77}
\contentsline {table}{\numberline {6.3}{\ignorespaces Performance of ASVECCO, compared to the benchmark system }}{143}{table.caption.78}
\addvspace {10\p@ }
\addvspace {10\p@ }
\contentsline {table}{\numberline {A.1}{\ignorespaces Performance of TRANSYT, $objective\_value = avg\_delay + 20\times avg\_stops$. \relax }}{157}{table.caption.83}
\contentsline {table}{\numberline {A.2}{\ignorespaces Our system's Average Delay}}{158}{table.caption.84}
\contentsline {table}{\numberline {A.3}{\ignorespaces Our system's Average Stops}}{158}{table.caption.85}
\contentsline {table}{\numberline {A.4}{\ignorespaces Our system's Average Objective value}}{158}{table.caption.86}
