\relax 
\citation{Le2011}
\FN@pp@footnotehinttrue 
\@writefile{toc}{\contentsline {chapter}{\numberline {A}Correction of a published paper}{157}{appendix.A}}
\@writefile{lof}{\addvspace {10\p@ }}
\@writefile{lot}{\addvspace {10\p@ }}
\newlabel{ap1}{{A}{157}{Correction of a published paper\relax }{appendix.A}{}}
\@writefile{lot}{\contentsline {table}{\numberline {A.1}{\ignorespaces Performance of TRANSYT, $objective\_value = avg\_delay + 20\times avg\_stops$. \relax }}{157}{table.caption.83}}
\newlabel{tabCorrTRANSYT}{{A.1}{157}{Performance of TRANSYT, $objective\_value = avg\_delay + 20\times avg\_stops$. \relax \relax }{table.caption.83}{}}
\@writefile{brf}{\backcite{Le2011}{{157}{A}{table.caption.83}}}
\@writefile{lot}{\contentsline {table}{\numberline {A.2}{\ignorespaces Our system's Average Delay}}{158}{table.caption.84}}
\newlabel{tabCorAvgDelay}{{A.2}{158}{Our system's Average Delay\relax }{table.caption.84}{}}
\@writefile{lot}{\contentsline {table}{\numberline {A.3}{\ignorespaces Our system's Average Stops}}{158}{table.caption.85}}
\newlabel{tabCorAvgStops}{{A.3}{158}{Our system's Average Stops\relax }{table.caption.85}{}}
\@writefile{lot}{\contentsline {table}{\numberline {A.4}{\ignorespaces Our system's Average Objective value}}{158}{table.caption.86}}
\newlabel{tabCorAvgObj}{{A.4}{158}{Our system's Average Objective value\relax }{table.caption.86}{}}
\FN@pp@footnotehinttrue 
\@setckpt{Appendix1/appendix1}{
\setcounter{page}{159}
\setcounter{equation}{0}
\setcounter{enumi}{3}
\setcounter{enumii}{0}
\setcounter{enumiii}{0}
\setcounter{enumiv}{0}
\setcounter{footnote}{0}
\setcounter{mpfootnote}{0}
\setcounter{part}{0}
\setcounter{chapter}{1}
\setcounter{section}{0}
\setcounter{subsection}{3}
\setcounter{subsubsection}{0}
\setcounter{paragraph}{0}
\setcounter{subparagraph}{0}
\setcounter{figure}{0}
\setcounter{table}{4}
\setcounter{pp@next@reset}{18}
\setcounter{@fnserial}{17}
\setcounter{NAT@ctr}{0}
\setcounter{Item}{14}
\setcounter{Hfootnote}{17}
\setcounter{bookmark@seq@number}{134}
\setcounter{parentequation}{0}
\setcounter{ALC@unique}{80}
\setcounter{ALC@line}{10}
\setcounter{ALC@rem}{0}
\setcounter{ALC@depth}{0}
\setcounter{float@type}{8}
\setcounter{algorithm}{9}
\setcounter{ContinuedFloat}{0}
\setcounter{KVtest}{0}
\setcounter{subfigure}{0}
\setcounter{subfigure@save}{2}
\setcounter{lofdepth}{1}
\setcounter{subtable}{0}
\setcounter{subtable@save}{0}
\setcounter{lotdepth}{1}
\setcounter{r@tfl@t}{0}
\setcounter{@pps}{0}
\setcounter{@ppsavesec}{0}
\setcounter{@ppsaveapp}{0}
\setcounter{section@level}{2}
}
