\relax 
\FN@pp@footnotehinttrue 
\@writefile{toc}{\contentsline {chapter}{\numberline {2}Literature Review}{9}{chapter.2}}
\@writefile{lof}{\addvspace {10\p@ }}
\@writefile{lot}{\addvspace {10\p@ }}
\newlabel{chap1a}{{2}{9}{Literature Review\relax }{chapter.2}{}}
\@writefile{toc}{\contentsline {section}{\numberline {2.1}Traffic signal control systems}{9}{section.2.1}}
\newlabel{secLitTrafficSystems}{{2.1}{9}{Traffic signal control systems\relax }{section.2.1}{}}
\citation{Robertson83}
\@writefile{toc}{\contentsline {subsection}{\numberline {2.1.1}Terminology}{10}{subsection.2.1.1}}
\newlabel{secLitReviewTerm}{{2.1.1}{10}{Terminology\relax }{subsection.2.1.1}{}}
\@writefile{brf}{\backcite{Robertson83}{{10}{2.1.1}{subsection.2.1.1}}}
\citation{HCM2000}
\@writefile{lof}{\contentsline {figure}{\numberline {2.1}{\ignorespaces Illustration of cycle, split and offset. The difference between the onset of green lights on an arterial road at intersection 1 and intersection 2 is the offset. The yellow part denotes amber time, and the red part denotes intergreen. \relax }}{11}{figure.caption.7}}
\newlabel{figC1aCycleOffset}{{2.1}{11}{Illustration of cycle, split and offset. The difference between the onset of green lights on an arterial road at intersection 1 and intersection 2 is the offset. The yellow part denotes amber time, and the red part denotes intergreen. \relax \relax }{figure.caption.7}{}}
\FN@pp@footnote@aux{1}{11}
\@writefile{brf}{\backcite{HCM2000}{{12}{2.1.1}{figure.caption.7}}}
\@writefile{toc}{\contentsline {subsection}{\numberline {2.1.2}Objective and control variables}{12}{subsection.2.1.2}}
\@writefile{toc}{\contentsline {subsection}{\numberline {2.1.3}Classification of control methods}{12}{subsection.2.1.3}}
\citation{Papageorgiou03}
\citation{Webster58}
\citation{Chaudhary1996}
\citation{Husch1999}
\citation{Clark2008}
\@writefile{brf}{\backcite{Papageorgiou03}{{13}{2.1.3}{subsection.2.1.3}}}
\@writefile{toc}{\contentsline {subsection}{\numberline {2.1.4}Fixed-time isolated methods }{13}{subsection.2.1.4}}
\@writefile{toc}{\contentsline {subsubsection}{\numberline {2.1.4.1}Stage-based method}{13}{subsubsection.2.1.4.1}}
\@writefile{brf}{\backcite{Webster58}{{13}{2.1.4.1}{subsubsection.2.1.4.1}}}
\@writefile{brf}{\backcite{Chaudhary1996}{{13}{2.1.4.1}{subsubsection.2.1.4.1}}}
\@writefile{brf}{\backcite{Husch1999}{{13}{2.1.4.1}{subsubsection.2.1.4.1}}}
\citation{Cheng03}
\citation{Improta84}
\citation{Wong03}
\citation{Heydecker87}
\@writefile{brf}{\backcite{Clark2008}{{14}{2.1.4.1}{subsubsection.2.1.4.1}}}
\@writefile{brf}{\backcite{Cheng03}{{14}{2.1.4.1}{subsubsection.2.1.4.1}}}
\@writefile{toc}{\contentsline {subsubsection}{\numberline {2.1.4.2}Phase-based methods}{14}{subsubsection.2.1.4.2}}
\@writefile{brf}{\backcite{Improta84}{{14}{2.1.4.2}{subsubsection.2.1.4.2}}}
\@writefile{brf}{\backcite{Wong03}{{14}{2.1.4.2}{subsubsection.2.1.4.2}}}
\@writefile{brf}{\backcite{Heydecker87}{{14}{2.1.4.2}{subsubsection.2.1.4.2}}}
\citation{Little66}
\citation{Little81}
\citation{Gartner91}
\@writefile{toc}{\contentsline {subsection}{\numberline {2.1.5}Fixed-time coordinated method}{15}{subsection.2.1.5}}
\newlabel{subsecFixedTime}{{2.1.5}{15}{Fixed-time coordinated method\relax }{subsection.2.1.5}{}}
\@writefile{toc}{\contentsline {subsubsection}{\numberline {2.1.5.1}MAXBAND}{15}{subsubsection.2.1.5.1}}
\@writefile{brf}{\backcite{Little66}{{15}{2.1.5.1}{subsubsection.2.1.5.1}}}
\@writefile{brf}{\backcite{Little81}{{15}{2.1.5.1}{subsubsection.2.1.5.1}}}
\@writefile{brf}{\backcite{Gartner91}{{15}{2.1.5.1}{subsubsection.2.1.5.1}}}
\citation{Little66}
\citation{Little66}
\citation{Robertson69}
\citation{Papageorgiou03}
\citation{Robertson83}
\@writefile{lof}{\contentsline {figure}{\numberline {2.2}{\ignorespaces Space-time diagram with inbound and outbound bands}}{16}{figure.caption.8}}
\@writefile{brf}{\backcite{Little66}{{16}{2.2}{figure.caption.8}}}
\newlabel{figC1aMAXBAND}{{2.2}{16}{Space-time diagram with inbound and outbound bands\relax }{figure.caption.8}{}}
\@writefile{toc}{\contentsline {subsubsection}{\numberline {2.1.5.2}TRANSYT}{16}{subsubsection.2.1.5.2}}
\@writefile{brf}{\backcite{Robertson69}{{16}{2.1.5.2}{subsubsection.2.1.5.2}}}
\@writefile{brf}{\backcite{Papageorgiou03}{{16}{2.1.5.2}{subsubsection.2.1.5.2}}}
\@writefile{brf}{\backcite{Robertson83}{{16}{2.1.5.2}{subsubsection.2.1.5.2}}}
\citation{Robertson83}
\citation{Little66}
\citation{Robertson83}
\@writefile{brf}{\backcite{Robertson83}{{17}{2.1.5.2}{subsubsection.2.1.5.2}}}
\@writefile{brf}{\backcite{Little66}{{17}{2.1.5.2}{subsubsection.2.1.5.2}}}
\@writefile{brf}{\backcite{Robertson83}{{17}{2.1.5.2}{subsubsection.2.1.5.2}}}
\@writefile{toc}{\contentsline {subsubsection}{\numberline {2.1.5.3}Advantages and disadvantages of fixed-time methods}{18}{subsubsection.2.1.5.3}}
\@writefile{toc}{\contentsline {subsection}{\numberline {2.1.6}Traffic-responsive methods}{18}{subsection.2.1.6}}
\citation{Luttinen02}
\citation{Papageorgiou03}
\citation{Heydecker90}
\@writefile{toc}{\contentsline {subsubsection}{\numberline {2.1.6.1}Traffic-responsive isolated methods}{19}{subsubsection.2.1.6.1}}
\@writefile{brf}{\backcite{Luttinen02}{{19}{2.1.6.1}{subsubsection.2.1.6.1}}}
\@writefile{brf}{\backcite{Papageorgiou03}{{19}{2.1.6.1}{subsubsection.2.1.6.1}}}
\citation{Vincent88}
\citation{Vincent88}
\citation{Heydecker90}
\citation{Lowrie82}
\citation{Sims80}
\@writefile{brf}{\backcite{Heydecker90}{{20}{2.1.6.1}{subsubsection.2.1.6.1}}}
\@writefile{brf}{\backcite{Vincent88}{{20}{2.1.6.1}{subsubsection.2.1.6.1}}}
\@writefile{brf}{\backcite{Vincent88}{{20}{2.1.6.1}{subsubsection.2.1.6.1}}}
\@writefile{brf}{\backcite{Heydecker90}{{20}{2.1.6.1}{subsubsection.2.1.6.1}}}
\@writefile{toc}{\contentsline {subsection}{\numberline {2.1.7}Traffic-responsive coordinated methods}{20}{subsection.2.1.7}}
\citation{Bell92}
\citation{Gartner80}
\citation{Henry83}
\citation{Mauro89}
\citation{Head01}
\@writefile{toc}{\contentsline {subsubsection}{\numberline {2.1.7.1}Library-lookup method}{21}{subsubsection.2.1.7.1}}
\@writefile{brf}{\backcite{Lowrie82}{{21}{2.1.7.1}{subsubsection.2.1.7.1}}}
\@writefile{brf}{\backcite{Sims80}{{21}{2.1.7.1}{subsubsection.2.1.7.1}}}
\@writefile{brf}{\backcite{Bell92}{{21}{2.1.7.1}{subsubsection.2.1.7.1}}}
\@writefile{toc}{\contentsline {subsubsection}{\numberline {2.1.7.2}Online optimised methods}{21}{subsubsection.2.1.7.2}}
\newlabel{subsubsecOOmethods}{{2.1.7.2}{21}{Online optimised methods\relax }{subsubsection.2.1.7.2}{}}
\FN@pp@footnote@aux{2}{21}
\@writefile{brf}{\backcite{Gartner80}{{21}{2.1.7.2}{subsubsection.2.1.7.2}}}
\@writefile{brf}{\backcite{Henry83}{{21}{2.1.7.2}{subsubsection.2.1.7.2}}}
\FN@pp@footnote@aux{3}{21}
\@writefile{brf}{\backcite{Mauro89}{{21}{2.1.7.2}{subsubsection.2.1.7.2}}}
\citation{Gartner01}
\FN@pp@footnote@aux{4}{22}
\@writefile{brf}{\backcite{Head01}{{22}{2.1.7.2}{subsubsection.2.1.7.2}}}
\citation{Andrews97}
\citation{Henry89}
\citation{Mauro89}
\citation{Mirchandani05}
\citation{Mirchandani05}
\citation{Boillot92}
\citation{Boillot06}
\citation{Aboudolas09,Aboudolas09b,Papageorgiou01}
\@writefile{brf}{\backcite{Gartner01}{{23}{2.1.7.2}{subsubsection.2.1.7.2}}}
\@writefile{brf}{\backcite{Andrews97}{{23}{2.1.7.2}{subsubsection.2.1.7.2}}}
\@writefile{brf}{\backcite{Henry89}{{23}{2.1.7.2}{subsubsection.2.1.7.2}}}
\@writefile{brf}{\backcite{Mauro89}{{23}{2.1.7.2}{subsubsection.2.1.7.2}}}
\@writefile{brf}{\backcite{Mirchandani05}{{23}{2.1.7.2}{subsubsection.2.1.7.2}}}
\@writefile{brf}{\backcite{Mirchandani05}{{23}{2.1.7.2}{subsubsection.2.1.7.2}}}
\@writefile{brf}{\backcite{Boillot92}{{23}{2.1.7.2}{subsubsection.2.1.7.2}}}
\@writefile{brf}{\backcite{Boillot06}{{23}{2.1.7.2}{subsubsection.2.1.7.2}}}
\citation{Robertson91}
\citation{Robertson91}
\citation{Wood94}
\@writefile{brf}{\backcite{Aboudolas09b}{{24}{2.1.7.2}{subsubsection.2.1.7.2}}}
\@writefile{brf}{\backcite{Aboudolas09}{{24}{2.1.7.2}{subsubsection.2.1.7.2}}}
\@writefile{brf}{\backcite{Papageorgiou01}{{24}{2.1.7.2}{subsubsection.2.1.7.2}}}
\@writefile{brf}{\backcite{Robertson91}{{24}{2.1.7.2}{subsubsection.2.1.7.2}}}
\@writefile{brf}{\backcite{Robertson91}{{25}{2.1.7.2}{subsubsection.2.1.7.2}}}
\@writefile{brf}{\backcite{Wood94}{{25}{2.1.7.2}{subsubsection.2.1.7.2}}}
\@writefile{toc}{\contentsline {section}{\numberline {2.2}A summary of signal control methods}{25}{section.2.2}}
\@writefile{lof}{\contentsline {figure}{\numberline {2.3}{\ignorespaces The landscape of signal control methods.\relax }}{25}{figure.caption.9}}
\newlabel{figChap1aLandscape}{{2.3}{25}{The landscape of signal control methods.\relax \relax }{figure.caption.9}{}}
\newlabel{figLandscapeB}{{2.4a}{26}{Subfigure 2 2.4a\relax }{subfigure.2.4.1}{}}
\newlabel{sub@figLandscapeB}{{(a)}{a}{Subfigure 2 2.4a\relax }{subfigure.2.4.1}{}}
\newlabel{figLandscapeC}{{2.4b}{26}{Subfigure 2 2.4b\relax }{subfigure.2.4.2}{}}
\newlabel{sub@figLandscapeC}{{(b)}{b}{Subfigure 2 2.4b\relax }{subfigure.2.4.2}{}}
\@writefile{lof}{\contentsline {figure}{\numberline {2.4}{\ignorespaces \relax \fontsize  {10.95}{13.6}\selectfont  \abovedisplayskip 11\p@ plus3\p@ minus6\p@ \abovedisplayshortskip \z@ plus3\p@ \belowdisplayshortskip 6.5\p@ plus3.5\p@ minus3\p@ \def \leftmargin \leftmargini \parsep 5\p@ plus2.5\p@ minus\p@ \topsep 10\p@ plus4\p@ minus6\p@ \itemsep 5\p@ plus2.5\p@ minus\p@ {\leftmargin \leftmargini \topsep 9\p@ plus3\p@ minus5\p@ \parsep 4.5\p@ plus2\p@ minus\p@ \itemsep \parsep }\belowdisplayskip \abovedisplayskip Landscape of signal control methods and their grouping. \relax }}{26}{figure.caption.10}}
\@writefile{lof}{\contentsline {subfigure}{\numberline{(a)}{\ignorespaces {Control methods grouped by level of responsiveness.}}}{26}{subfigure.4.1}}
\@writefile{lof}{\contentsline {subfigure}{\numberline{(b)}{\ignorespaces {Control methods grouped by scope.}}}{26}{subfigure.4.2}}
\newlabel{figChap1aLandscape2}{{2.4}{26}{\small Landscape of signal control methods and their grouping. \relax \relax }{figure.caption.10}{}}
\@writefile{lof}{\contentsline {figure}{\numberline {2.5}{\ignorespaces Our proposed method placed in the landscape of signal control methods.\relax }}{28}{figure.caption.11}}
\newlabel{figChap1aOurSystem}{{2.5}{28}{Our proposed method placed in the landscape of signal control methods.\relax \relax }{figure.caption.11}{}}
\citation{Zarkadoula2007}
\citation{Barkenbus2010}
\citation{Beusen2009}
\citation{Ericsson11}
\citation{Barth11,ElShawarby200513}
\citation{Barth11}
\citation{Barth11}
\citation{Barth2000NCHRP}
\citation{ElShawarby200513,Barth11}
\@writefile{toc}{\contentsline {section}{\numberline {2.3}Eco-driving methods based on traffic signal information}{29}{section.2.3}}
\@writefile{brf}{\backcite{Zarkadoula2007}{{29}{2.3}{section.2.3}}}
\@writefile{brf}{\backcite{Barkenbus2010}{{29}{2.3}{section.2.3}}}
\@writefile{brf}{\backcite{Beusen2009}{{29}{2.3}{section.2.3}}}
\@writefile{brf}{\backcite{Ericsson11}{{29}{2.3}{section.2.3}}}
\@writefile{brf}{\backcite{Barth11}{{29}{2.3}{section.2.3}}}
\@writefile{brf}{\backcite{ElShawarby200513}{{29}{2.3}{section.2.3}}}
\citation{Mandava2009}
\@writefile{lof}{\contentsline {figure}{\numberline {2.6}{\ignorespaces Fuel consumption versus average cruise speed generalised functional relationship }}{30}{figure.caption.12}}
\@writefile{brf}{\backcite{Barth11}{{30}{2.6}{figure.caption.12}}}
\newlabel{figChap1aFuelSpeed}{{2.6}{30}{Fuel consumption versus average cruise speed generalised functional relationship\relax }{figure.caption.12}{}}
\@writefile{brf}{\backcite{Barth2000NCHRP}{{30}{2.3}{figure.caption.12}}}
\@writefile{brf}{\backcite{Barth11}{{30}{2.3}{figure.caption.12}}}
\@writefile{brf}{\backcite{ElShawarby200513}{{30}{2.3}{figure.caption.12}}}
\@writefile{brf}{\backcite{Mandava2009}{{30}{2.3}{figure.caption.12}}}
\citation{Barth2009}
\@writefile{brf}{\backcite{Barth2009}{{31}{2.3}{figure.caption.12}}}
\citation{Varhelyi2001,Oh2005,Carsten2000}
\citation{Carsten2000}
\citation{Stone2008}
\citation{Lee2011}
\@writefile{brf}{\backcite{Carsten2000}{{32}{2.3}{figure.caption.12}}}
\@writefile{brf}{\backcite{Oh2005}{{32}{2.3}{figure.caption.12}}}
\@writefile{brf}{\backcite{Varhelyi2001}{{32}{2.3}{figure.caption.12}}}
\@writefile{brf}{\backcite{Carsten2000}{{32}{2.3}{figure.caption.12}}}
\@writefile{brf}{\backcite{Stone2008}{{32}{2.3}{figure.caption.12}}}
\@writefile{brf}{\backcite{Lee2011}{{32}{2.3}{figure.caption.12}}}
\citation{Stone2008,Lee2011}
\citation{AudiTravo}
\@writefile{brf}{\backcite{Stone2008}{{33}{2.3}{figure.caption.12}}}
\@writefile{brf}{\backcite{Lee2011}{{33}{2.3}{figure.caption.12}}}
\@writefile{brf}{\backcite{AudiTravo}{{33}{2.3}{figure.caption.12}}}
\citation{Misener2011}
\citation{Amanna2009}
\citation{USDOT2005}
\citation{IBI2004,Kim2004}
\citation{Smith2011}
\@writefile{lof}{\contentsline {figure}{\numberline {2.7}{\ignorespaces Our method in the broader landscape.\relax }}{34}{figure.caption.13}}
\newlabel{figOurMethod2}{{2.7}{34}{Our method in the broader landscape.\relax \relax }{figure.caption.13}{}}
\@writefile{toc}{\contentsline {section}{\numberline {2.4}Related technology}{34}{section.2.4}}
\newlabel{secRelatedTechonology}{{2.4}{34}{Related technology\relax }{section.2.4}{}}
\@writefile{toc}{\contentsline {subsection}{\numberline {2.4.1}Vehicle-to-Infrastructure communication}{34}{subsection.2.4.1}}
\newlabel{subsecV2I}{{2.4.1}{34}{Vehicle-to-Infrastructure communication\relax }{subsection.2.4.1}{}}
\FN@pp@footnote@aux{5}{34}
\FN@pp@footnote@aux{6}{34}
\@writefile{brf}{\backcite{Misener2011}{{34}{2.4.1}{subsection.2.4.1}}}
\@writefile{brf}{\backcite{Amanna2009}{{34}{2.4.1}{subsection.2.4.1}}}
\citation{USDOT2005}
\citation{USDOT2005}
\citation{Xiao2010}
\citation{Persson1999,Egawa2005}
\citation{Bishop2005intelligent}
\citation{Fancher1998}
\@writefile{lof}{\contentsline {figure}{\numberline {2.8}{\ignorespaces DSRC range}}{35}{figure.caption.14}}
\@writefile{brf}{\backcite{USDOT2005}{{35}{2.8}{figure.caption.14}}}
\newlabel{figLitRevDSRCrange}{{2.8}{35}{DSRC range\relax }{figure.caption.14}{}}
\@writefile{brf}{\backcite{USDOT2005}{{35}{2.4.1}{subsection.2.4.1}}}
\FN@pp@footnote@aux{7}{35}
\@writefile{brf}{\backcite{IBI2004}{{35}{2.4.1}{subsection.2.4.1}}}
\@writefile{brf}{\backcite{Kim2004}{{35}{2.4.1}{subsection.2.4.1}}}
\@writefile{brf}{\backcite{Smith2011}{{35}{2.4.1}{subsection.2.4.1}}}
\citation{Jimenez11}
\citation{samama2008global}
\citation{Kee2008DGPS}
\citation{Naranjo09}
\@writefile{toc}{\contentsline {subsection}{\numberline {2.4.2}Adaptive cruise control}{36}{subsection.2.4.2}}
\newlabel{subsecAcc}{{2.4.2}{36}{Adaptive cruise control\relax }{subsection.2.4.2}{}}
\@writefile{brf}{\backcite{Xiao2010}{{36}{2.4.2}{subsection.2.4.2}}}
\@writefile{brf}{\backcite{Egawa2005}{{36}{2.4.2}{subsection.2.4.2}}}
\@writefile{brf}{\backcite{Persson1999}{{36}{2.4.2}{subsection.2.4.2}}}
\FN@pp@footnote@aux{8}{36}
\FN@pp@footnote@aux{9}{36}
\@writefile{brf}{\backcite{Bishop2005intelligent}{{36}{2.4.2}{subsection.2.4.2}}}
\@writefile{brf}{\backcite{Fancher1998}{{36}{2.4.2}{subsection.2.4.2}}}
\@writefile{toc}{\contentsline {subsection}{\numberline {2.4.3}Vehicle positioning techniques}{36}{subsection.2.4.3}}
\newlabel{subsecVehPosning}{{2.4.3}{36}{Vehicle positioning techniques\relax }{subsection.2.4.3}{}}
\@writefile{brf}{\backcite{Jimenez11}{{36}{2.4.3}{subsection.2.4.3}}}
\citation{hofmann2008gnss}
\citation{Hydro11}
\citation{Gebhard2003NTRIP,Toran06SisNet}
\citation{Merry07NTRIP}
\citation{Du06}
\citation{Grewal07}
\citation{Toledo-Moreo07,Han10,Jwo09}
\citation{Godha05}
\citation{Gao07}
\@writefile{brf}{\backcite{samama2008global}{{37}{2.4.3}{subsection.2.4.3}}}
\@writefile{brf}{\backcite{Kee2008DGPS}{{37}{2.4.3}{subsection.2.4.3}}}
\@writefile{brf}{\backcite{Naranjo09}{{37}{2.4.3}{subsection.2.4.3}}}
\@writefile{brf}{\backcite{hofmann2008gnss}{{37}{2.4.3}{subsection.2.4.3}}}
\@writefile{brf}{\backcite{Hydro11}{{37}{2.4.3}{subsection.2.4.3}}}
\@writefile{brf}{\backcite{Gebhard2003NTRIP}{{37}{2.4.3}{subsection.2.4.3}}}
\@writefile{brf}{\backcite{Toran06SisNet}{{37}{2.4.3}{subsection.2.4.3}}}
\@writefile{brf}{\backcite{Merry07NTRIP}{{37}{2.4.3}{subsection.2.4.3}}}
\@writefile{brf}{\backcite{Du06}{{37}{2.4.3}{subsection.2.4.3}}}
\@writefile{brf}{\backcite{Grewal07}{{37}{2.4.3}{subsection.2.4.3}}}
\@writefile{brf}{\backcite{Han10}{{38}{2.4.3}{subsection.2.4.3}}}
\@writefile{brf}{\backcite{Jwo09}{{38}{2.4.3}{subsection.2.4.3}}}
\@writefile{brf}{\backcite{Toledo-Moreo07}{{38}{2.4.3}{subsection.2.4.3}}}
\@writefile{brf}{\backcite{Godha05}{{38}{2.4.3}{subsection.2.4.3}}}
\@writefile{brf}{\backcite{Gao07}{{38}{2.4.3}{subsection.2.4.3}}}
\@writefile{toc}{\contentsline {section}{\numberline {2.5}Summary}{38}{section.2.5}}
\FN@pp@footnotehinttrue 
\@setckpt{LitReview/chapter1a}{
\setcounter{page}{40}
\setcounter{equation}{0}
\setcounter{enumi}{4}
\setcounter{enumii}{0}
\setcounter{enumiii}{0}
\setcounter{enumiv}{0}
\setcounter{footnote}{0}
\setcounter{mpfootnote}{0}
\setcounter{part}{0}
\setcounter{chapter}{2}
\setcounter{section}{5}
\setcounter{subsection}{0}
\setcounter{subsubsection}{0}
\setcounter{paragraph}{0}
\setcounter{subparagraph}{0}
\setcounter{figure}{8}
\setcounter{table}{0}
\setcounter{pp@next@reset}{10}
\setcounter{@fnserial}{9}
\setcounter{NAT@ctr}{0}
\setcounter{Item}{6}
\setcounter{Hfootnote}{9}
\setcounter{bookmark@seq@number}{37}
\setcounter{parentequation}{0}
\setcounter{ALC@unique}{0}
\setcounter{ALC@line}{0}
\setcounter{ALC@rem}{0}
\setcounter{ALC@depth}{0}
\setcounter{float@type}{8}
\setcounter{algorithm}{0}
\setcounter{ContinuedFloat}{0}
\setcounter{KVtest}{0}
\setcounter{subfigure}{0}
\setcounter{subfigure@save}{2}
\setcounter{lofdepth}{1}
\setcounter{subtable}{0}
\setcounter{subtable@save}{0}
\setcounter{lotdepth}{1}
\setcounter{r@tfl@t}{0}
\setcounter{@pps}{0}
\setcounter{@ppsavesec}{0}
\setcounter{@ppsaveapp}{0}
\setcounter{section@level}{1}
}
