\relax 
\citation{EPA2006}
\FN@pp@footnotehinttrue 
\@writefile{toc}{\contentsline {chapter}{\numberline {5}Speed advising system}{86}{chapter.5}}
\@writefile{lof}{\addvspace {10\p@ }}
\@writefile{lot}{\addvspace {10\p@ }}
\newlabel{chapSpeedAdvising}{{5}{86}{Speed advising system\relax }{chapter.5}{}}
\FN@pp@footnote@aux{11}{86}
\@writefile{brf}{\backcite{EPA2006}{{86}{5}{chapter.5}}}
\FN@pp@footnote@aux{12}{86}
\citation{Le2011VideoFixedTime}
\@writefile{brf}{\backcite{Le2011VideoFixedTime}{{87}{5}{chapter.5}}}
\@writefile{toc}{\contentsline {section}{\numberline {5.1}Assumptions and Terms}{87}{section.5.1}}
\newlabel{secChapSpeedAdvisingAssumption}{{5.1}{87}{Assumptions and Terms\relax }{section.5.1}{}}
\@writefile{toc}{\contentsline {subsection}{\numberline {5.1.1}Assumptions}{87}{subsection.5.1.1}}
\@writefile{toc}{\contentsline {subsection}{\numberline {5.1.2}Terms}{88}{subsection.5.1.2}}
\citation{Rakha200449}
\citation{Scora06}
\@writefile{toc}{\contentsline {section}{\numberline {5.2}Fuel consumption and emission modelling}{89}{section.5.2}}
\@writefile{brf}{\backcite{Rakha200449}{{89}{5.2}{section.5.2}}}
\@writefile{brf}{\backcite{Scora06}{{89}{5.2}{section.5.2}}}
\newlabel{eqCarbon}{{5.1}{90}{Fuel consumption and emission modelling\relax }{equation.5.2.1}{}}
\newlabel{eqFuel}{{5.2}{90}{Fuel consumption and emission modelling\relax }{equation.5.2.2}{}}
\citation{Barth2000NCHRP}
\citation{Barth2000NCHRP}
\citation{Scora06}
\citation{Barth11}
\citation{ElShawarby200513}
\@writefile{lof}{\contentsline {figure}{\numberline {5.1}{\ignorespaces CMEM components}}{91}{figure.caption.46}}
\@writefile{brf}{\backcite{Barth2000NCHRP}{{91}{5.1}{figure.caption.46}}}
\newlabel{figLitRevCMEM}{{5.1}{91}{CMEM components\relax }{figure.caption.46}{}}
\@writefile{toc}{\contentsline {section}{\numberline {5.3}Speed planning method}{91}{section.5.3}}
\@writefile{lot}{\contentsline {table}{\numberline {5.1}{\ignorespaces Fuel consumption and tailpipe-out CO$_2$\ emission.\relax }}{92}{table.caption.48}}
\newlabel{tabC3speedExampleResult}{{5.1}{92}{Fuel consumption and tailpipe-out \carbon \ emission.\relax \relax }{table.caption.48}{}}
\newlabel{subsecEffSpeed}{{5.3.1}{92}{Effective speed adaptation\relax }{subsection.5.3.1}{}}
\@writefile{toc}{\contentsline {subsection}{\numberline {5.3.1}Effective speed adaptation}{92}{subsection.5.3.1}}
\FN@pp@footnote@aux{13}{92}
\@writefile{brf}{\backcite{Scora06}{{92}{5.3.1}{subsection.5.3.1}}}
\@writefile{brf}{\backcite{Barth11}{{92}{5.3.1}{subsection.5.3.1}}}
\@writefile{brf}{\backcite{ElShawarby200513}{{92}{5.3.1}{subsection.5.3.1}}}
\newlabel{figC3speed}{{5.2a}{93}{Subfigure 5 5.2a\relax }{subfigure.5.2.1}{}}
\newlabel{sub@figC3speed}{{(a)}{a}{Subfigure 5 5.2a\relax }{subfigure.5.2.1}{}}
\newlabel{figC3timeSpace}{{5.2b}{93}{Subfigure 5 5.2b\relax }{subfigure.5.2.2}{}}
\newlabel{sub@figC3timeSpace}{{(b)}{b}{Subfigure 5 5.2b\relax }{subfigure.5.2.2}{}}
\@writefile{lof}{\contentsline {figure}{\numberline {5.2}{\ignorespaces Two different acceleration profiles.\relax }}{93}{figure.caption.47}}
\@writefile{lof}{\contentsline {subfigure}{\numberline{(a)}{\ignorespaces {Speed profiles. Both cars arrive at the destination at the same time. }}}{93}{subfigure.2.1}}
\@writefile{lof}{\contentsline {subfigure}{\numberline{(b)}{\ignorespaces {Time-space diagram. }}}{93}{subfigure.2.2}}
\@writefile{toc}{\contentsline {subsection}{\numberline {5.3.2}``Fixed-time plus'' controller}{93}{subsection.5.3.2}}
\newlabel{secFplus}{{5.3.2}{93}{``Fixed-time plus'' controller\relax }{subsection.5.3.2}{}}
\citation{Ando2011}
\newlabel{procC3VehControl}{{4}{94}{Vehicle controller\relax \relax }{algorithm.4}{}}
\@writefile{loa}{\contentsline {algorithm}{\numberline {4}{\ignorespaces Vehicle controller\relax }}{94}{algorithm.4}}
\newlabel{eqC3cruise}{{5.4}{94}{``Fixed-time plus'' controller\relax }{equation.5.3.4}{}}
\newlabel{.}{{5.5}{94}{``Fixed-time plus'' controller\relax }{equation.5.3.5}{}}
\@writefile{brf}{\backcite{Ando2011}{{95}{5.3.2}{equation.5.3.5}}}
\@writefile{loa}{\contentsline {algorithm}{\numberline {5}{\ignorespaces Acceleration computation\relax }}{96}{algorithm.5}}
\newlabel{procC3Accel}{{5}{96}{Acceleration computation\relax \relax }{algorithm.5}{}}
\newlabel{procVehicle}{{6}{96}{Vehicle loop \relax \relax }{algorithm.6}{}}
\@writefile{loa}{\contentsline {algorithm}{\numberline {6}{\ignorespaces Vehicle loop \relax }}{96}{algorithm.6}}
\@writefile{toc}{\contentsline {subsection}{\numberline {5.3.3}No-slow-down zone (NSDZ)}{97}{subsection.5.3.3}}
\newlabel{NSDZ}{{5.3.3}{97}{No-slow-down zone (NSDZ)\relax }{subsection.5.3.3}{}}
\@writefile{lof}{\contentsline {figure}{\numberline {5.3}{\ignorespaces The NSDZ is the area bounded by the red dashed box. The horizontal one-way road has two lanes, numbered 1 and 2. Smart cars are blue. The smart car in lane 1 slows down to avoid a red light ahead at intersection A and blocks intersection B. The smart car in lane 2, due to the NSDZ, does not.\relax }}{98}{figure.caption.49}}
\newlabel{figC3NSDZ}{{5.3}{98}{The NSDZ is the area bounded by the red dashed box. The horizontal one-way road has two lanes, numbered 1 and 2. Smart cars are blue. The smart car in lane 1 slows down to avoid a red light ahead at intersection A and blocks intersection B. The smart car in lane 2, due to the NSDZ, does not.\relax \relax }{figure.caption.49}{}}
\@writefile{toc}{\contentsline {section}{\numberline {5.4}Test road network}{98}{section.5.4}}
\@writefile{toc}{\contentsline {subsection}{\numberline {5.4.1}Network topologies}{98}{subsection.5.4.1}}
\citation{Koone08}
\@writefile{lof}{\contentsline {figure}{\numberline {5.4}{\ignorespaces  Overview of the road network. Each road has three lanes per side and uses keep-right driving.\relax }}{99}{figure.caption.50}}
\@writefile{lof}{\contentsline {subfigure}{\numberline{(a)}{\ignorespaces {The whole network.}}}{99}{subfigure.4.1}}
\@writefile{lof}{\contentsline {subfigure}{\numberline{(b)}{\ignorespaces {Close-up view of one intersection.}}}{99}{subfigure.4.2}}
\newlabel{figGrid}{{5.4}{99}{Overview of the road network. Each road has three lanes per side and uses keep-right driving.\relax \relax }{figure.caption.50}{}}
\@writefile{toc}{\contentsline {subsection}{\numberline {5.4.2}Traffic signal settings}{99}{subsection.5.4.2}}
\@writefile{brf}{\backcite{Koone08}{{99}{5.4.2}{subsection.5.4.2}}}
\@writefile{lof}{\contentsline {figure}{\numberline {5.5}{\ignorespaces  The four main signal phases. The driving rule is ``keep-right''.\relax }}{100}{figure.caption.51}}
\newlabel{signalPhases}{{5.5}{100}{The four main signal phases. The driving rule is ``keep-right''.\relax \relax }{figure.caption.51}{}}
\@writefile{toc}{\contentsline {subsection}{\numberline {5.4.3}Signal schedules}{100}{subsection.5.4.3}}
\newlabel{secC3SignalSchedule}{{5.4.3}{100}{Signal schedules\relax }{subsection.5.4.3}{}}
\@writefile{lot}{\contentsline {table}{\numberline {5.2}{\ignorespaces Lengths of main phase output by TRANSYT. Cycle length = 100~s.\relax }}{100}{table.caption.52}}
\newlabel{t:signal}{{5.2}{100}{Lengths of main phase output by TRANSYT. Cycle length = 100~s.\relax \relax }{table.caption.52}{}}
\@writefile{lot}{\contentsline {table}{\numberline {5.3}{\ignorespaces  Starting time of each phase. The time index starts at 0, and I.G. stands for intergreen.\relax }}{100}{table.caption.53}}
\newlabel{tChapSpeedAdvisingSignals}{{5.3}{100}{Starting time of each phase. The time index starts at 0, and I.G. stands for intergreen.\relax \relax }{table.caption.53}{}}
\citation{Scora06}
\@writefile{toc}{\contentsline {subsection}{\numberline {5.4.4}Traffic demand}{101}{subsection.5.4.4}}
\@writefile{lot}{\contentsline {table}{\numberline {5.4}{\ignorespaces Traffic demand.\relax }}{101}{table.caption.54}}
\newlabel{tDemand}{{5.4}{101}{Traffic demand.\relax \relax }{table.caption.54}{}}
\@writefile{toc}{\contentsline {section}{\numberline {5.5}Experimental result and analysis}{101}{section.5.5}}
\@writefile{toc}{\contentsline {subsection}{\numberline {5.5.1}Vehicle types}{101}{subsection.5.5.1}}
\@writefile{brf}{\backcite{Scora06}{{101}{5.5.1}{subsection.5.5.1}}}
\@writefile{toc}{\contentsline {subsection}{\numberline {5.5.2}One car on empty roads}{102}{subsection.5.5.2}}
\newlabel{secOneCarEmptyRoads}{{5.5.2}{102}{One car on empty roads\relax }{subsection.5.5.2}{}}
\@writefile{lot}{\contentsline {table}{\numberline {5.5}{\ignorespaces Fuel consumption and emissions of one car on empty roads. CO emission is one order of magnitude smaller than CO$_2$. HC and NO$_x$ emissions are three orders of magnitude smaller than CO$_2$. \relax }}{102}{table.caption.56}}
\newlabel{tabChapSpeedAdvisingResult}{{5.5}{102}{Fuel consumption and emissions of one car on empty roads. CO emission is one order of magnitude smaller than \carbon . HC and NO$_x$ emissions are three orders of magnitude smaller than \carbon . \relax \relax }{table.caption.56}{}}
\@writefile{lof}{\contentsline {figure}{\numberline {5.6}{\ignorespaces Speed profiles of two cars on empty roads with normal traffic settings.\relax }}{103}{figure.caption.55}}
\newlabel{figChapSpeedAdvisingSingleSpeed}{{5.6}{103}{Speed profiles of two cars on empty roads with normal traffic settings.\relax \relax }{figure.caption.55}{}}
\@writefile{toc}{\contentsline {subsection}{\numberline {5.5.3}One car in traffic}{103}{subsection.5.5.3}}
\newlabel{ssec:onecarintraffic}{{5.5.3}{103}{One car in traffic\relax }{subsection.5.5.3}{}}
\citation{Mandava2009}
\@writefile{brf}{\backcite{Mandava2009}{{104}{5.5.3}{subsection.5.5.3}}}
\@writefile{lof}{\contentsline {figure}{\numberline {5.7}{\ignorespaces Fuel consumption and emissions by a single car}}{104}{figure.caption.57}}
\@writefile{lof}{\contentsline {subfigure}{\numberline{(a)}{\ignorespaces {Fuel consumption}}}{104}{subfigure.7.1}}
\@writefile{lof}{\contentsline {subfigure}{\numberline{(b)}{\ignorespaces {CO$_2$}}}{104}{subfigure.7.2}}
\newlabel{figCSpeedAdvisingOneCar}{{5.7}{104}{Fuel consumption and emissions by a single car\relax }{figure.caption.57}{}}
\@writefile{lot}{\contentsline {table}{\numberline {5.6}{\ignorespaces Fuel consumption and CO$_2$\ emissions for each type of car. The unit of the mean and SD values is g/km, and the unit of improvement is percentage. \relax }}{104}{table.caption.58}}
\newlabel{tabCSpeedAdvisingOneCar}{{5.6}{104}{Fuel consumption and \carbon \ emissions for each type of car. The unit of the mean and SD values is g/km, and the unit of improvement is percentage. \relax \relax }{table.caption.58}{}}
\@writefile{toc}{\contentsline {subsection}{\numberline {5.5.4}Mass-scale test}{105}{subsection.5.5.4}}
\newlabel{secC3MassScale}{{5.5.4}{105}{Mass-scale test\relax }{subsection.5.5.4}{}}
\FN@pp@footnote@aux{14}{105}
\@writefile{toc}{\contentsline {subsection}{\numberline {5.5.5}Fuel consumption }{105}{subsection.5.5.5}}
\newlabel{ssec:fuelresults}{{5.5.5}{105}{Fuel consumption\relax }{subsection.5.5.5}{}}
\@writefile{lof}{\contentsline {figure}{\numberline {5.8}{\ignorespaces Average per km fuel consumption by one car.\relax }}{106}{figure.caption.59}}
\newlabel{figC3AvgFuel}{{5.8}{106}{Average per km fuel consumption by one car.\relax \relax }{figure.caption.59}{}}
\newlabel{eqFuelFormula}{{5.6}{106}{Fuel consumption\relax }{equation.5.5.6}{}}
\citation{Stevanovic09}
\@writefile{lof}{\contentsline {figure}{\numberline {5.9}{\ignorespaces Average total amount of fuel consumed by all cars in one run.\relax }}{107}{figure.caption.60}}
\newlabel{figC3Fuel}{{5.9}{107}{Average total amount of fuel consumed by all cars in one run.\relax \relax }{figure.caption.60}{}}
\FN@pp@footnote@aux{15}{107}
\@writefile{brf}{\backcite{Stevanovic09}{{107}{5.5.5}{equation.5.5.6}}}
\citation{NTC2011}
\@writefile{lof}{\contentsline {figure}{\numberline {5.10}{\ignorespaces Average per-km amount of CO$_2$\ emitted by one car.\relax }}{108}{figure.caption.61}}
\newlabel{figC3AvgCO2}{{5.10}{108}{Average per-km amount of \carbon \ emitted by one car.\relax \relax }{figure.caption.61}{}}
\@writefile{toc}{\contentsline {subsection}{\numberline {5.5.6}CO$_2$\ emission}{108}{subsection.5.5.6}}
\@writefile{brf}{\backcite{NTC2011}{{108}{5.5.6}{figure.caption.62}}}
\@writefile{lof}{\contentsline {figure}{\numberline {5.11}{\ignorespaces Average total amount of CO$_2$\ emitted by all cars in one run.\relax }}{109}{figure.caption.62}}
\newlabel{figC3CO2}{{5.11}{109}{Average total amount of \carbon \ emitted by all cars in one run.\relax \relax }{figure.caption.62}{}}
\@writefile{lof}{\contentsline {figure}{\numberline {5.12}{\ignorespaces Average delay.\relax }}{110}{figure.caption.63}}
\newlabel{figC3Delay}{{5.12}{110}{Average delay.\relax \relax }{figure.caption.63}{}}
\@writefile{toc}{\contentsline {subsection}{\numberline {5.5.7}Delay and stops}{110}{subsection.5.5.7}}
\newlabel{secC3DelayStop}{{5.5.7}{110}{Delay and stops\relax }{subsection.5.5.7}{}}
\@writefile{lof}{\contentsline {figure}{\numberline {5.13}{\ignorespaces Average stops.\relax }}{111}{figure.caption.64}}
\newlabel{figC3Stops}{{5.13}{111}{Average stops.\relax \relax }{figure.caption.64}{}}
\@writefile{toc}{\contentsline {subsection}{\numberline {5.5.8}Limitations}{112}{subsection.5.5.8}}
\newlabel{secC3Limit}{{5.5.8}{112}{Limitations\relax }{subsection.5.5.8}{}}
\citation{Mandava2009,Manzie2007}
\@writefile{brf}{\backcite{Mandava2009}{{113}{5.5.8}{subsection.5.5.8}}}
\@writefile{brf}{\backcite{Manzie2007}{{113}{5.5.8}{subsection.5.5.8}}}
\@writefile{toc}{\contentsline {section}{\numberline {5.6}Summary}{113}{section.5.6}}
\FN@pp@footnotehinttrue 
\@writefile{lof}{\contentsline {figure}{\numberline {5.14}{\ignorespaces Averge Objective of Fplus system}}{114}{figure.caption.65}}
\@writefile{lof}{\contentsline {subfigure}{\numberline{(a)}{\ignorespaces {objective = delay + 20 x stop.}}}{114}{subfigure.14.1}}
\@writefile{lof}{\contentsline {subfigure}{\numberline{(b)}{\ignorespaces {objective = delay + 40 x stop}}}{114}{subfigure.14.2}}
\newlabel{figC3Obj}{{5.14}{114}{Averge Objective of Fplus system\relax }{figure.caption.65}{}}
\@setckpt{Chapter3/chapter3}{
\setcounter{page}{115}
\setcounter{equation}{6}
\setcounter{enumi}{4}
\setcounter{enumii}{0}
\setcounter{enumiii}{0}
\setcounter{enumiv}{0}
\setcounter{footnote}{0}
\setcounter{mpfootnote}{0}
\setcounter{part}{0}
\setcounter{chapter}{5}
\setcounter{section}{6}
\setcounter{subsection}{0}
\setcounter{subsubsection}{0}
\setcounter{paragraph}{0}
\setcounter{subparagraph}{0}
\setcounter{figure}{14}
\setcounter{table}{6}
\setcounter{pp@next@reset}{16}
\setcounter{@fnserial}{15}
\setcounter{NAT@ctr}{0}
\setcounter{Item}{6}
\setcounter{Hfootnote}{15}
\setcounter{bookmark@seq@number}{97}
\setcounter{parentequation}{0}
\setcounter{ALC@unique}{54}
\setcounter{ALC@line}{10}
\setcounter{ALC@rem}{0}
\setcounter{ALC@depth}{0}
\setcounter{float@type}{8}
\setcounter{algorithm}{6}
\setcounter{ContinuedFloat}{0}
\setcounter{KVtest}{0}
\setcounter{subfigure}{0}
\setcounter{subfigure@save}{2}
\setcounter{lofdepth}{1}
\setcounter{subtable}{0}
\setcounter{subtable@save}{0}
\setcounter{lotdepth}{1}
\setcounter{r@tfl@t}{0}
\setcounter{@pps}{0}
\setcounter{@ppsavesec}{0}
\setcounter{@ppsaveapp}{0}
\setcounter{section@level}{1}
}
