\relax 
\citation{Le2011VideoFixedTime}
\FN@pp@footnotehinttrue 
\@writefile{toc}{\contentsline {chapter}{\numberline {6}A fully cooperative control system}{115}{chapter.6}}
\@writefile{lof}{\addvspace {10\p@ }}
\@writefile{lot}{\addvspace {10\p@ }}
\newlabel{chap4}{{6}{115}{A fully cooperative control system\relax }{chapter.6}{}}
\@writefile{brf}{\backcite{Le2011VideoFixedTime}{{115}{6}{chapter.6}}}
\@writefile{toc}{\contentsline {section}{\numberline {6.1}Assumptions and Terms}{115}{section.6.1}}
\newlabel{secChapCooperativeControlsumption}{{6.1}{115}{Assumptions and Terms\relax }{section.6.1}{}}
\@writefile{toc}{\contentsline {subsection}{\numberline {6.1.1}Assumptions}{116}{subsection.6.1.1}}
\@writefile{toc}{\contentsline {subsection}{\numberline {6.1.2}Terms}{116}{subsection.6.1.2}}
\@writefile{toc}{\contentsline {section}{\numberline {6.2}Methodology}{117}{section.6.2}}
\@writefile{toc}{\contentsline {subsection}{\numberline {6.2.1}Problem formulation revisited}{117}{subsection.6.2.1}}
\@writefile{toc}{\contentsline {subsubsection}{\numberline {6.2.1.1}State space}{117}{subsubsection.6.2.1.1}}
\newlabel{eqC2signalState}{{6.1}{117}{State space\relax }{equation.6.2.1}{}}
\newlabel{eq:State}{{6.2}{118}{State space\relax }{equation.6.2.2}{}}
\@writefile{toc}{\contentsline {subsubsection}{\numberline {6.2.1.2}Control}{118}{subsubsection.6.2.1.2}}
\@writefile{toc}{\contentsline {subsubsection}{\numberline {6.2.1.3}Dynamics}{119}{subsubsection.6.2.1.3}}
\@writefile{toc}{\contentsline {subsubsection}{\numberline {6.2.1.4}Step cost and optimisation objective}{120}{subsubsection.6.2.1.4}}
\newlabel{eqStepCostNew}{{6.3}{120}{Step cost and optimisation objective\relax }{equation.6.2.3}{}}
\newlabel{eqC4Obj}{{6.4}{120}{Step cost and optimisation objective\relax }{equation.6.2.4}{}}
\@writefile{toc}{\contentsline {section}{\numberline {6.3}ADP}{121}{section.6.3}}
\newlabel{secADP}{{6.3}{121}{ADP\relax }{section.6.3}{}}
\@writefile{toc}{\contentsline {subsection}{\numberline {6.3.1}Approximation feature}{121}{subsection.6.3.1}}
\newlabel{phiN}{{6.5}{121}{Approximation feature\relax }{equation.6.3.5}{}}
\newlabel{eqC4Jtilde}{{6.6}{121}{Approximation feature\relax }{equation.6.3.6}{}}
\newlabel{eqC4rVec}{{6.7}{121}{Approximation feature\relax }{equation.6.3.7}{}}
\newlabel{eqLaneValueGreen}{{6.8}{122}{Approximation feature\relax }{equation.6.3.8}{}}
\newlabel{eqLaneValueRed}{{6.9}{122}{Approximation feature\relax }{equation.6.3.9}{}}
\newlabel{eqC4ExpandJtilde}{{6.10}{122}{Approximation feature\relax }{equation.6.3.10}{}}
\newlabel{eqC4Jtilde2}{{6.11}{122}{Approximation feature\relax }{equation.6.3.11}{}}
\@writefile{toc}{\contentsline {subsection}{\numberline {6.3.2}M-step scheduling}{122}{subsection.6.3.2}}
\newlabel{subsecMStep}{{6.3.2}{122}{M-step scheduling\relax }{subsection.6.3.2}{}}
\FN@pp@footnote@aux{16}{123}
\newlabel{eqOptimStepApprox}{{6.12}{123}{M-step scheduling\relax }{equation.6.3.12}{}}
\@writefile{toc}{\contentsline {subsection}{\numberline {6.3.3}Suggested action}{123}{subsection.6.3.3}}
\newlabel{procC4VehControl}{{7}{124}{Speed-control loop\relax \relax }{algorithm.7}{}}
\@writefile{loa}{\contentsline {algorithm}{\numberline {7}{\ignorespaces Speed-control loop\relax }}{124}{algorithm.7}}
\@writefile{toc}{\contentsline {subsection}{\numberline {6.3.4}Control Algorithm}{124}{subsection.6.3.4}}
\newlabel{secC4ControlAlgo}{{6.3.4}{124}{Control Algorithm\relax }{subsection.6.3.4}{}}
\newlabel{procMasterControl}{{8}{125}{Control procedure\relax \relax }{algorithm.8}{}}
\@writefile{loa}{\contentsline {algorithm}{\numberline {8}{\ignorespaces Control procedure\relax }}{125}{algorithm.8}}
\@writefile{toc}{\contentsline {section}{\numberline {6.4}Experimental results and analysis}{125}{section.6.4}}
\newlabel{secExpResults}{{6.4}{125}{Experimental results and analysis\relax }{section.6.4}{}}
\@writefile{toc}{\contentsline {subsection}{\numberline {6.4.1}Sensitivity of $k$}{125}{subsection.6.4.1}}
\newlabel{procC4VehicleSide}{{9}{126}{Vehicle loop \relax \relax }{algorithm.9}{}}
\@writefile{loa}{\contentsline {algorithm}{\numberline {9}{\ignorespaces Vehicle loop \relax }}{126}{algorithm.9}}
\@writefile{lof}{\contentsline {figure}{\numberline {6.1}{\ignorespaces Change in average delay and stops with respect to the value of $k$.\relax }}{127}{figure.caption.66}}
\@writefile{lof}{\contentsline {subfigure}{\numberline{(a)}{\ignorespaces {Average delay}}}{127}{subfigure.1.1}}
\@writefile{lof}{\contentsline {subfigure}{\numberline{(b)}{\ignorespaces {Average stops}}}{127}{subfigure.1.2}}
\newlabel{figC4DelayStopByK}{{6.1}{127}{Change in average delay and stops with respect to the value of $k$.\relax \relax }{figure.caption.66}{}}
\@writefile{lof}{\contentsline {figure}{\numberline {6.2}{\ignorespaces Change in the average fuel consumption and average CO$_2$~emissions with respect to the value of $k$.\relax }}{129}{figure.caption.67}}
\@writefile{lof}{\contentsline {subfigure}{\numberline{(a)}{\ignorespaces {Average fuel consumption}}}{129}{subfigure.2.1}}
\@writefile{lof}{\contentsline {subfigure}{\numberline{(b)}{\ignorespaces {Average CO$_2$}}}{129}{subfigure.2.2}}
\newlabel{figC4FuelAndCO2ByK}{{6.2}{129}{Change in the average fuel consumption and average \carbon ~emissions with respect to the value of $k$.\relax \relax }{figure.caption.67}{}}
\@writefile{lof}{\contentsline {figure}{\numberline {6.3}{\ignorespaces Average stops by ASVECCO\ system.\relax }}{130}{figure.caption.68}}
\newlabel{figC4Stops}{{6.3}{130}{Average stops by \cName \ system.\relax \relax }{figure.caption.68}{}}
\@writefile{toc}{\contentsline {subsection}{\numberline {6.4.2}Stops}{130}{subsection.6.4.2}}
\newlabel{secC4Stops}{{6.4.2}{130}{Stops\relax }{subsection.6.4.2}{}}
\@writefile{toc}{\contentsline {subsection}{\numberline {6.4.3}Delay by our system}{131}{subsection.6.4.3}}
\newlabel{secDelayByOurSystem}{{6.4.3}{131}{Delay by our system\relax }{subsection.6.4.3}{}}
\@writefile{lof}{\contentsline {figure}{\numberline {6.4}{\ignorespaces Average delay by ASVECCO\ system. \relax }}{132}{figure.caption.69}}
\newlabel{figC4AvgDelay}{{6.4}{132}{Average delay by \cName \ system. \relax \relax }{figure.caption.69}{}}
\@writefile{toc}{\contentsline {subsection}{\numberline {6.4.4}Objective value}{133}{subsection.6.4.4}}
\@writefile{toc}{\contentsline {subsection}{\numberline {6.4.5}Fuel consumption}{133}{subsection.6.4.5}}
\newlabel{secC4Fuel}{{6.4.5}{133}{Fuel consumption\relax }{subsection.6.4.5}{}}
\@writefile{lof}{\contentsline {figure}{\numberline {6.5}{\ignorespaces Average objective value, $k=40$.\relax }}{134}{figure.caption.70}}
\newlabel{figC4Obj}{{6.5}{134}{Average objective value, $k=40$.\relax \relax }{figure.caption.70}{}}
\@writefile{lof}{\contentsline {figure}{\numberline {6.6}{\ignorespaces Average fuel consumption.\relax }}{135}{figure.caption.71}}
\newlabel{figC4AvgFuel}{{6.6}{135}{Average fuel consumption.\relax \relax }{figure.caption.71}{}}
\@writefile{lof}{\contentsline {figure}{\numberline {6.7}{\ignorespaces Total fuel consumption, where $x$ is percentage of smart cars and $y$ is the total fuel consumption (kg).\relax }}{136}{figure.caption.72}}
\newlabel{figC4TotalFuel}{{6.7}{136}{Total fuel consumption, where $x$ is percentage of smart cars and $y$ is the total fuel consumption (kg).\relax \relax }{figure.caption.72}{}}
\@writefile{toc}{\contentsline {subsection}{\numberline {6.4.6}CO$_2$\ emissions}{136}{subsection.6.4.6}}
\newlabel{secC4CO2}{{6.4.6}{136}{\carbon \ emissions\relax }{subsection.6.4.6}{}}
\@writefile{lof}{\contentsline {figure}{\numberline {6.8}{\ignorespaces Average CO$_2$\ emissions.\relax }}{137}{figure.caption.73}}
\newlabel{figC4AvgCarbon}{{6.8}{137}{Average \carbon \ emissions.\relax \relax }{figure.caption.73}{}}
\@writefile{lof}{\contentsline {figure}{\numberline {6.9}{\ignorespaces Total CO$_2$\ emissions, where $x$ is percentage of smart cars and $y$ are the total CO$_2$\ emission (kg).\relax }}{138}{figure.caption.74}}
\newlabel{figC4TotalCO2}{{6.9}{138}{Total \carbon \ emissions, where $x$ is percentage of smart cars and $y$ are the total \carbon \ emission (kg).\relax \relax }{figure.caption.74}{}}
\@writefile{toc}{\contentsline {subsection}{\numberline {6.4.7}Other emissions}{139}{subsection.6.4.7}}
\newlabel{secOtherEmis}{{6.4.7}{139}{Other emissions\relax }{subsection.6.4.7}{}}
\@writefile{toc}{\contentsline {subsection}{\numberline {6.4.8}Benchmark system Fplus}{139}{subsection.6.4.8}}
\@writefile{lot}{\contentsline {table}{\numberline {6.1}{\ignorespaces TRANSYT schedules created with $k=40$}}{140}{table.caption.76}}
\newlabel{tC4TRANSYT}{{6.1}{140}{TRANSYT schedules created with $k=40$\relax }{table.caption.76}{}}
\@writefile{lot}{\contentsline {table}{\numberline {6.2}{\ignorespaces Performance of benchmark system, Fplus\_0\%, $k=40$~s. \relax }}{140}{table.caption.77}}
\newlabel{tabC4BenchmarkSystem}{{6.2}{140}{Performance of benchmark system, Fplus\_0\%, $k=40$~s. \relax \relax }{table.caption.77}{}}
\@writefile{toc}{\contentsline {subsection}{\numberline {6.4.9}Comparison to Fplus\_0\%}{140}{subsection.6.4.9}}
\newlabel{secCompareBmark}{{6.4.9}{140}{Comparison to Fplus\_0\%\relax }{subsection.6.4.9}{}}
\FN@pp@footnotehinttrue 
\@writefile{lof}{\contentsline {figure}{\numberline {6.10}{\ignorespaces Other emissions by all vehicles}}{142}{figure.caption.75}}
\@writefile{lof}{\contentsline {subfigure}{\numberline{(a)}{\ignorespaces {Total HC~kg}}}{142}{subfigure.10.1}}
\@writefile{lof}{\contentsline {subfigure}{\numberline{(b)}{\ignorespaces {Total CO~kg}}}{142}{subfigure.10.2}}
\@writefile{lof}{\contentsline {subfigure}{\numberline{(c)}{\ignorespaces {Total NOx~kg}}}{142}{subfigure.10.3}}
\newlabel{figC4Other}{{6.10}{142}{Other emissions by all vehicles\relax }{figure.caption.75}{}}
\@writefile{lot}{\contentsline {table}{\numberline {6.3}{\ignorespaces Performance of ASVECCO, compared to the benchmark system }}{143}{table.caption.78}}
\newlabel{tabC4CompareBenchmark}{{6.3}{143}{Performance of \cName , compared to the benchmark system\relax }{table.caption.78}{}}
\FN@pp@footnotehinttrue 
\@writefile{toc}{\contentsline {subsection}{\numberline {6.4.10}Comparison to Fplus with smart cars}{144}{subsection.6.4.10}}
\@writefile{toc}{\contentsline {subsubsection}{\numberline {6.4.10.1}Delay and stops}{144}{subsubsection.6.4.10.1}}
\@writefile{lof}{\contentsline {figure}{\numberline {6.11}{\ignorespaces Delay and stops comparison between ASVECCO\ and Fplus systems.\relax }}{145}{figure.caption.79}}
\@writefile{lof}{\contentsline {subfigure}{\numberline{(a)}{\ignorespaces {Average delay}}}{145}{subfigure.11.1}}
\@writefile{lof}{\contentsline {subfigure}{\numberline{(b)}{\ignorespaces {Average stops}}}{145}{subfigure.11.2}}
\newlabel{figC4DnSComp}{{6.11}{145}{Delay and stops comparison between \cName \ and Fplus systems.\relax \relax }{figure.caption.79}{}}
\@writefile{lof}{\contentsline {figure}{\numberline {6.12}{\ignorespaces Objective comparison between ASVECCO\ and Fplus systems. $k=40$.\relax }}{146}{figure.caption.80}}
\newlabel{figC4OComp}{{6.12}{146}{Objective comparison between \cName \ and Fplus systems. $k=40$.\relax \relax }{figure.caption.80}{}}
\@writefile{toc}{\contentsline {subsubsection}{\numberline {6.4.10.2}Fuel consumption and CO$_2$\ emissions}{147}{subsubsection.6.4.10.2}}
\@writefile{lof}{\contentsline {figure}{\numberline {6.13}{\ignorespaces Total fuel consumption by ASVECCO\ and Fplus systems.\relax }}{147}{figure.caption.81}}
\newlabel{figC4FComp}{{6.13}{147}{Total fuel consumption by \cName \ and Fplus systems.\relax \relax }{figure.caption.81}{}}
\@writefile{lof}{\contentsline {figure}{\numberline {6.14}{\ignorespaces Total CO$_2$\ emissions by ASVECCO\ and Fplus systems.\relax }}{148}{figure.caption.82}}
\newlabel{figC4CComp}{{6.14}{148}{Total \carbon \ emissions by \cName \ and Fplus systems.\relax \relax }{figure.caption.82}{}}
\@writefile{toc}{\contentsline {section}{\numberline {6.5}Is it worthwhile?}{148}{section.6.5}}
\newlabel{secDiscussion}{{6.5}{148}{Is it worthwhile?\relax }{section.6.5}{}}
\citation{Robertson83}
\citation{SCOOTWorcester}
\citation{Stevanovic09}
\citation{Mandava2009}
\@writefile{brf}{\backcite{Robertson83}{{149}{6.5}{Item.14}}}
\@writefile{brf}{\backcite{SCOOTWorcester}{{149}{6.5}{Item.14}}}
\@writefile{brf}{\backcite{Stevanovic09}{{149}{6.5}{Item.14}}}
\@writefile{brf}{\backcite{Mandava2009}{{149}{6.5}{Item.14}}}
\@writefile{toc}{\contentsline {section}{\numberline {6.6}Summary}{151}{section.6.6}}
\newlabel{secConclusion}{{6.6}{151}{Summary\relax }{section.6.6}{}}
\FN@pp@footnotehinttrue 
\@setckpt{Chapter4/chapter4}{
\setcounter{page}{153}
\setcounter{equation}{12}
\setcounter{enumi}{3}
\setcounter{enumii}{0}
\setcounter{enumiii}{0}
\setcounter{enumiv}{0}
\setcounter{footnote}{0}
\setcounter{mpfootnote}{0}
\setcounter{part}{0}
\setcounter{chapter}{6}
\setcounter{section}{6}
\setcounter{subsection}{0}
\setcounter{subsubsection}{2}
\setcounter{paragraph}{0}
\setcounter{subparagraph}{0}
\setcounter{figure}{14}
\setcounter{table}{3}
\setcounter{pp@next@reset}{17}
\setcounter{@fnserial}{16}
\setcounter{NAT@ctr}{0}
\setcounter{Item}{14}
\setcounter{Hfootnote}{16}
\setcounter{bookmark@seq@number}{127}
\setcounter{parentequation}{0}
\setcounter{ALC@unique}{80}
\setcounter{ALC@line}{10}
\setcounter{ALC@rem}{0}
\setcounter{ALC@depth}{0}
\setcounter{float@type}{8}
\setcounter{algorithm}{9}
\setcounter{ContinuedFloat}{0}
\setcounter{KVtest}{0}
\setcounter{subfigure}{0}
\setcounter{subfigure@save}{2}
\setcounter{lofdepth}{1}
\setcounter{subtable}{0}
\setcounter{subtable@save}{0}
\setcounter{lotdepth}{1}
\setcounter{r@tfl@t}{0}
\setcounter{@pps}{0}
\setcounter{@ppsavesec}{0}
\setcounter{@ppsaveapp}{0}
\setcounter{section@level}{1}
}
