\relax 
\citation{TTI2011}
\citation{BTRE7107}
\citation{Meinshausen2009}
\citation{NewScientist2011}
\citation{DeCicco2006}
\citation{EUCommission2012}
\FN@pp@footnotehinttrue 
\@writefile{toc}{\contentsline {chapter}{\numberline {1}Introduction}{1}{chapter.1}}
\@writefile{lof}{\addvspace {10\p@ }}
\@writefile{lot}{\addvspace {10\p@ }}
\newlabel{chap0}{{1}{1}{Introduction\relax }{chapter.1}{}}
\@writefile{toc}{\contentsline {section}{\numberline {1.1}The problem}{1}{section.1.1}}
\@writefile{brf}{\backcite{TTI2011}{{1}{1.1}{section.1.1}}}
\@writefile{brf}{\backcite{BTRE7107}{{1}{1.1}{section.1.1}}}
\@writefile{brf}{\backcite{Meinshausen2009}{{1}{1.1}{section.1.1}}}
\@writefile{brf}{\backcite{NewScientist2011}{{1}{1.1}{section.1.1}}}
\@writefile{brf}{\backcite{DeCicco2006}{{1}{1.1}{section.1.1}}}
\citation{Papageorgiou2000}
\citation{Kaparias2007,Schmitt2006}
\citation{Sims80}
\citation{Lowrie82}
\citation{Robertson83}
\citation{Gartner80}
\@writefile{brf}{\backcite{EUCommission2012}{{2}{1.1}{section.1.1}}}
\@writefile{toc}{\contentsline {subsection}{\numberline {1.1.1}Solutions for reducing travel delay}{2}{subsection.1.1.1}}
\@writefile{brf}{\backcite{Papageorgiou2000}{{2}{1.1.1}{subsection.1.1.1}}}
\@writefile{brf}{\backcite{Kaparias2007}{{2}{1.1.1}{subsection.1.1.1}}}
\@writefile{brf}{\backcite{Schmitt2006}{{2}{1.1.1}{subsection.1.1.1}}}
\@writefile{brf}{\backcite{Sims80}{{2}{1.1.1}{subsection.1.1.1}}}
\@writefile{brf}{\backcite{Lowrie82}{{2}{1.1.1}{subsection.1.1.1}}}
\@writefile{brf}{\backcite{Robertson83}{{2}{1.1.1}{subsection.1.1.1}}}
\@writefile{brf}{\backcite{Gartner80}{{2}{1.1.1}{subsection.1.1.1}}}
\citation{USDOT2005}
\citation{Vahidi2003}
\@writefile{toc}{\contentsline {subsection}{\numberline {1.1.2}Solutions for reducing fuel consumption and CO$_2$\ emissions}{3}{subsection.1.1.2}}
\@writefile{brf}{\backcite{USDOT2005}{{4}{1.1.2}{subsection.1.1.2}}}
\@writefile{brf}{\backcite{Vahidi2003}{{4}{1.1.2}{subsection.1.1.2}}}
\@writefile{toc}{\contentsline {section}{\numberline {1.2}The purpose of this doctoral study}{4}{section.1.2}}
\@writefile{toc}{\contentsline {section}{\numberline {1.3}Our hypotheses}{4}{section.1.3}}
\newlabel{secHypo}{{1.3}{4}{Our hypotheses\relax }{section.1.3}{}}
\@writefile{lof}{\contentsline {figure}{\numberline {1.1}{\ignorespaces Illustration of the proposed system}}{5}{figure.caption.5}}
\providecommand*\caption@xref[2]{\@setref\relax\@undefined{#1}}
\newlabel{introOver}{{1.1}{5}{Illustration of the proposed system\relax }{figure.caption.5}{}}
\@writefile{toc}{\contentsline {section}{\numberline {1.4}Structure of the thesis}{5}{section.1.4}}
\@writefile{lof}{\contentsline {figure}{\numberline {1.2}{\ignorespaces Structure of the thesis.\relax }}{6}{figure.caption.6}}
\newlabel{introStructure}{{1.2}{6}{Structure of the thesis.\relax \relax }{figure.caption.6}{}}
\@writefile{toc}{\contentsline {section}{\numberline {1.5}List of publications}{6}{section.1.5}}
\@writefile{toc}{\contentsline {section}{\numberline {1.6}List of contributions}{7}{section.1.6}}
\FN@pp@footnotehinttrue 
\@setckpt{Introduction/introduction}{
\setcounter{page}{9}
\setcounter{equation}{0}
\setcounter{enumi}{4}
\setcounter{enumii}{0}
\setcounter{enumiii}{0}
\setcounter{enumiv}{0}
\setcounter{footnote}{0}
\setcounter{mpfootnote}{0}
\setcounter{part}{0}
\setcounter{chapter}{1}
\setcounter{section}{6}
\setcounter{subsection}{0}
\setcounter{subsubsection}{0}
\setcounter{paragraph}{0}
\setcounter{subparagraph}{0}
\setcounter{figure}{2}
\setcounter{table}{0}
\setcounter{pp@next@reset}{1}
\setcounter{@fnserial}{0}
\setcounter{NAT@ctr}{0}
\setcounter{Item}{6}
\setcounter{Hfootnote}{0}
\setcounter{bookmark@seq@number}{13}
\setcounter{parentequation}{0}
\setcounter{ALC@unique}{0}
\setcounter{ALC@line}{0}
\setcounter{ALC@rem}{0}
\setcounter{ALC@depth}{0}
\setcounter{float@type}{8}
\setcounter{algorithm}{0}
\setcounter{ContinuedFloat}{0}
\setcounter{KVtest}{0}
\setcounter{subfigure}{0}
\setcounter{subfigure@save}{0}
\setcounter{lofdepth}{1}
\setcounter{subtable}{0}
\setcounter{subtable@save}{0}
\setcounter{lotdepth}{1}
\setcounter{r@tfl@t}{0}
\setcounter{@pps}{0}
\setcounter{@ppsavesec}{0}
\setcounter{@ppsaveapp}{0}
\setcounter{section@level}{1}
}
