\relax 
\citation{Puterman94}
\citation{russel03modern}
\citation{Sutton1998,Bertsekas2007}
\FN@pp@footnotehinttrue 
\@writefile{toc}{\contentsline {chapter}{\numberline {3}Approximate Dynamic Programming}{40}{chapter.3}}
\@writefile{lof}{\addvspace {10\p@ }}
\@writefile{lot}{\addvspace {10\p@ }}
\newlabel{chap1}{{3}{40}{Approximate Dynamic Programming\relax }{chapter.3}{}}
\citation{Puterman94}
\citation{Powell07Chap2}
\@writefile{brf}{\backcite{Puterman94}{{41}{3}{chapter.3}}}
\@writefile{brf}{\backcite{russel03modern}{{41}{3}{chapter.3}}}
\@writefile{brf}{\backcite{Bertsekas2007}{{41}{3}{chapter.3}}}
\@writefile{brf}{\backcite{Sutton1998}{{41}{3}{chapter.3}}}
\@writefile{toc}{\contentsline {section}{\numberline {3.1}MDP}{41}{section.3.1}}
\@writefile{brf}{\backcite{Puterman94}{{41}{3.1}{section.3.1}}}
\newlabel{eqUltimateCost}{{3.1}{41}{MDP\relax }{equation.3.1.1}{}}
\@writefile{brf}{\backcite{Powell07Chap2}{{41}{3.1}{equation.3.1.1}}}
\@writefile{lof}{\contentsline {figure}{\numberline {3.1}{\ignorespaces An MDP with 3 states}}{42}{figure.caption.15}}
\newlabel{MDPSystem}{{3.1}{42}{An MDP with 3 states\relax }{figure.caption.15}{}}
\@writefile{toc}{\contentsline {section}{\numberline {3.2}DP}{42}{section.3.2}}
\newlabel{chap1secDP}{{3.2}{42}{DP\relax }{section.3.2}{}}
\citation{Bellman57}
\newlabel{eqStateVal1}{{3.2}{43}{DP\relax }{equation.3.2.2}{}}
\newlabel{eqStateVal}{{3.3}{43}{DP\relax }{equation.3.2.2}{}}
\newlabel{eqStateMinVal}{{3.4}{43}{DP\relax }{equation.3.2.4}{}}
\newlabel{eqPolicy}{{3.5}{43}{DP\relax }{equation.3.2.5}{}}
\newlabel{eqOptimPolicy}{{3.6}{43}{DP\relax }{equation.3.2.6}{}}
\@writefile{brf}{\backcite{Bellman57}{{44}{3.2}{equation.3.2.6}}}
\@writefile{toc}{\contentsline {subsection}{\numberline {3.2.1}Value iteration}{44}{subsection.3.2.1}}
\newlabel{eqStateValIterAction}{{3.7}{44}{Value iteration\relax }{equation.3.2.7}{}}
\newlabel{eqStateValIter}{{3.8}{44}{Value iteration\relax }{equation.3.2.8}{}}
\@writefile{lot}{\contentsline {table}{\numberline {3.1}{\ignorespaces An example of value iteration. Convergence occurs after the 19$^{\textrm  {th}}$\relax }}{45}{table.caption.16}}
\newlabel{ValIterTable}{{3.1}{45}{An example of value iteration. Convergence occurs after the 19$^{\textrm {th}}$\relax \relax }{table.caption.16}{}}
\@writefile{toc}{\contentsline {subsection}{\numberline {3.2.2}Policy iteration}{46}{subsection.3.2.2}}
\newlabel{secC1PolIter}{{3.2.2}{46}{Policy iteration\relax }{subsection.3.2.2}{}}
\newlabel{eqStatePolIter}{{3.9}{46}{Policy iteration\relax }{equation.3.2.9}{}}
\newlabel{eqStatePolImprov}{{3.10}{46}{Policy iteration\relax }{equation.3.2.10}{}}
\@writefile{toc}{\contentsline {section}{\numberline {3.3}ADP}{47}{section.3.3}}
\@writefile{toc}{\contentsline {subsection}{\numberline {3.3.1}Roll-out ADP}{47}{subsection.3.3.1}}
\newlabel{eqStateValOneStepLook}{{3.11}{47}{Roll-out ADP\relax }{equation.3.3.11}{}}
\newlabel{eqStateValTwoStepLook}{{3.12}{48}{Roll-out ADP\relax }{equation.3.3.12}{}}
\@writefile{toc}{\contentsline {subsection}{\numberline {3.3.2}M-step scheduling and simulated trajectories}{48}{subsection.3.3.2}}
\newlabel{eqC1JBarM}{{3.13}{48}{M-step scheduling and simulated trajectories\relax }{equation.3.3.13}{}}
\citation{Bertsekas2007}
\newlabel{eqC1ArgminU}{{3.14}{49}{M-step scheduling and simulated trajectories\relax }{equation.3.3.14}{}}
\newlabel{eqC1OptimStepRollOut}{{3.15}{49}{M-step scheduling and simulated trajectories\relax }{equation.3.3.15}{}}
\@writefile{toc}{\contentsline {subsection}{\numberline {3.3.3}Parametric ADP}{49}{subsection.3.3.3}}
\newlabel{secChap1ADP}{{3.3.3}{49}{Parametric ADP\relax }{subsection.3.3.3}{}}
\newlabel{eqApproxStateVal}{{3.16}{49}{Parametric ADP\relax }{equation.3.3.16}{}}
\newlabel{eqApproxStateValBreak}{{3.17}{49}{Parametric ADP\relax }{equation.3.3.17}{}}
\citation{Sutton1998}
\@writefile{brf}{\backcite{Bertsekas2007}{{50}{3.3.3}{equation.3.3.17}}}
\newlabel{eqStatePolImprovApprox}{{3.18}{50}{Parametric ADP\relax }{equation.3.3.18}{}}
\newlabel{eqRLValApprox}{{3.19}{50}{Parametric ADP\relax }{equation.3.3.19}{}}
\newlabel{eqRLValApproxSimp}{{3.20}{50}{Parametric ADP\relax }{equation.3.3.20}{}}
\newlabel{eqC1EtaCond}{{3.21}{50}{Parametric ADP\relax }{equation.3.3.21}{}}
\@writefile{brf}{\backcite{Sutton1998}{{50}{3.3.3}{equation.3.3.21}}}
\citation{Bertsekas2011}
\citation{Bertsekas2011}
\newlabel{alApproxIter}{{1}{51}{Approximate Policy Iteration\relax }{algorithm.1}{}}
\@writefile{loa}{\contentsline {algorithm}{\numberline {1}{\ignorespaces Approximate Policy Iteration}}{51}{algorithm.1}}
\@writefile{lof}{\contentsline {figure}{\numberline {3.2}{\ignorespaces Approximate policy iteration work flow. Redrawn from~\citep  {Bertsekas2011}.\relax }}{52}{figure.caption.17}}
\@writefile{brf}{\backcite{Bertsekas2011}{{52}{3.2}{figure.caption.17}}}
\newlabel{ApproxPolIterLoop}{{3.2}{52}{Approximate policy iteration work flow. Redrawn from~\citep {Bertsekas2011}.\relax \relax }{figure.caption.17}{}}
\@writefile{toc}{\contentsline {subsection}{\numberline {3.3.4}Combination of roll-out and parametric forms of ADP}{52}{subsection.3.3.4}}
\newlabel{eqC1JHatM}{{3.22}{52}{Combination of roll-out and parametric forms of ADP\relax }{equation.3.3.22}{}}
\citation{Sutton1998}
\newlabel{eqC1UArgminApprox}{{3.23}{53}{Combination of roll-out and parametric forms of ADP\relax }{equation.3.3.23}{}}
\newlabel{eqTDoneStep}{{3.24}{53}{Combination of roll-out and parametric forms of ADP\relax }{equation.3.3.24}{}}
\newlabel{eqUpdateR}{{3.25}{53}{Combination of roll-out and parametric forms of ADP\relax }{equation.3.3.25}{}}
\@writefile{brf}{\backcite{Sutton1998}{{53}{3.3.4}{equation.3.3.25}}}
\newlabel{eqApproxStateValBreakRecall}{{3.26}{53}{Combination of roll-out and parametric forms of ADP\relax }{equation.3.3.26}{}}
\newlabel{eqC1UpdateR2}{{3.27}{53}{Combination of roll-out and parametric forms of ADP\relax }{equation.3.3.27}{}}
\newlabel{eqC1UpdateR3}{{3.28}{54}{Combination of roll-out and parametric forms of ADP\relax }{equation.3.3.28}{}}
\@writefile{toc}{\contentsline {section}{\numberline {3.4}Summary}{54}{section.3.4}}
\FN@pp@footnotehinttrue 
\@setckpt{Chapter1/chapter1}{
\setcounter{page}{55}
\setcounter{equation}{28}
\setcounter{enumi}{4}
\setcounter{enumii}{0}
\setcounter{enumiii}{0}
\setcounter{enumiv}{0}
\setcounter{footnote}{0}
\setcounter{mpfootnote}{0}
\setcounter{part}{0}
\setcounter{chapter}{3}
\setcounter{section}{4}
\setcounter{subsection}{0}
\setcounter{subsubsection}{0}
\setcounter{paragraph}{0}
\setcounter{subparagraph}{0}
\setcounter{figure}{2}
\setcounter{table}{1}
\setcounter{pp@next@reset}{10}
\setcounter{@fnserial}{9}
\setcounter{NAT@ctr}{0}
\setcounter{Item}{6}
\setcounter{Hfootnote}{9}
\setcounter{bookmark@seq@number}{48}
\setcounter{parentequation}{0}
\setcounter{ALC@unique}{13}
\setcounter{ALC@line}{13}
\setcounter{ALC@rem}{0}
\setcounter{ALC@depth}{0}
\setcounter{float@type}{8}
\setcounter{algorithm}{1}
\setcounter{ContinuedFloat}{0}
\setcounter{KVtest}{0}
\setcounter{subfigure}{0}
\setcounter{subfigure@save}{2}
\setcounter{lofdepth}{1}
\setcounter{subtable}{0}
\setcounter{subtable@save}{0}
\setcounter{lotdepth}{1}
\setcounter{r@tfl@t}{0}
\setcounter{@pps}{0}
\setcounter{@ppsavesec}{0}
\setcounter{@ppsaveapp}{0}
\setcounter{section@level}{1}
}
