\relax 
\FN@pp@footnotehinttrue 
\@writefile{toc}{\contentsline {chapter}{\numberline {7}Conclusion and future research directions}{153}{chapter.7}}
\@writefile{lof}{\addvspace {10\p@ }}
\@writefile{lot}{\addvspace {10\p@ }}
\newlabel{chapClus}{{7}{153}{Conclusion and future research directions\relax }{chapter.7}{}}
\FN@pp@footnote@aux{17}{153}
\@writefile{toc}{\contentsline {section}{\numberline {7.1}Summary}{154}{section.7.1}}
\citation{Treiber2000}
\citation{Head01}
\@writefile{toc}{\contentsline {section}{\numberline {7.2}Future works and research directions}{155}{section.7.2}}
\@writefile{toc}{\contentsline {subsection}{\numberline {7.2.1}Using a continuous car-movement model}{155}{subsection.7.2.1}}
\@writefile{brf}{\backcite{Treiber2000}{{155}{7.2.1}{subsection.7.2.1}}}
\citation{Stone2008,Lee2011}
\@writefile{toc}{\contentsline {subsection}{\numberline {7.2.2}Extending network size}{156}{subsection.7.2.2}}
\@writefile{brf}{\backcite{Head01}{{156}{7.2.2}{subsection.7.2.2}}}
\@writefile{toc}{\contentsline {subsection}{\numberline {7.2.3}Bridging signalized intersection and completely non-signalized intersection}{156}{subsection.7.2.3}}
\@writefile{brf}{\backcite{Stone2008}{{156}{7.2.3}{subsection.7.2.3}}}
\@writefile{brf}{\backcite{Lee2011}{{156}{7.2.3}{subsection.7.2.3}}}
\FN@pp@footnotehinttrue 
\@setckpt{Conclusions/conclusions}{
\setcounter{page}{157}
\setcounter{equation}{0}
\setcounter{enumi}{3}
\setcounter{enumii}{0}
\setcounter{enumiii}{0}
\setcounter{enumiv}{0}
\setcounter{footnote}{0}
\setcounter{mpfootnote}{0}
\setcounter{part}{0}
\setcounter{chapter}{7}
\setcounter{section}{2}
\setcounter{subsection}{3}
\setcounter{subsubsection}{0}
\setcounter{paragraph}{0}
\setcounter{subparagraph}{0}
\setcounter{figure}{0}
\setcounter{table}{0}
\setcounter{pp@next@reset}{18}
\setcounter{@fnserial}{17}
\setcounter{NAT@ctr}{0}
\setcounter{Item}{14}
\setcounter{Hfootnote}{17}
\setcounter{bookmark@seq@number}{133}
\setcounter{parentequation}{0}
\setcounter{ALC@unique}{80}
\setcounter{ALC@line}{10}
\setcounter{ALC@rem}{0}
\setcounter{ALC@depth}{0}
\setcounter{float@type}{8}
\setcounter{algorithm}{9}
\setcounter{ContinuedFloat}{0}
\setcounter{KVtest}{0}
\setcounter{subfigure}{0}
\setcounter{subfigure@save}{2}
\setcounter{lofdepth}{1}
\setcounter{subtable}{0}
\setcounter{subtable@save}{0}
\setcounter{lotdepth}{1}
\setcounter{r@tfl@t}{0}
\setcounter{@pps}{0}
\setcounter{@ppsavesec}{0}
\setcounter{@ppsaveapp}{0}
\setcounter{section@level}{2}
}
